BMW_PIFO_SRAM_basic/wave.vcd
$date
	Sun Apr 30 23:03:16 2023
$end
$version
	Icarus Verilog
$end
$timescale
	10ps
$end
$scope module TC $end
$var wire 10 ! pop_data [9:0] $end
$var reg 1 " arst_n $end
$var reg 1 # clk $end
$var reg 1 $ pop $end
$var reg 1 % push $end
$var reg 10 & push_data [9:0] $end
$var integer 32 ' i [31:0] $end
$var integer 32 ( seed [31:0] $end
$scope module u_PIFO_TOP $end
$var wire 1 " i_arst_n $end
$var wire 1 # i_clk $end
$var wire 1 $ i_pop $end
$var wire 1 % i_push $end
$var wire 10 ) i_push_data [9:0] $end
$var wire 10 * o_pop_data [9:0] $end
$var wire 4 + write [3:0] $end
$var wire 4 , we [3:0] $end
$var wire 13 - waddr [12:0] $end
$var wire 4 . read [3:0] $end
$var wire 4 / re [3:0] $end
$var wire 13 0 raddr [12:0] $end
$var wire 4 1 push_up [3:0] $end
$var wire 4 2 pop_up [3:0] $end
$scope function addr_idx_high $end
$var integer 32 3 i [31:0] $end
$var integer 32 4 j [31:0] $end
$var integer 32 5 k [31:0] $end
$var integer 32 6 pifo_level [31:0] $end
$upscope $end
$scope function addr_idx_low $end
$var integer 32 7 i [31:0] $end
$var integer 32 8 j [31:0] $end
$var integer 32 9 k [31:0] $end
$var integer 32 : pifo_level [31:0] $end
$upscope $end
$scope function find_level $end
$var integer 32 ; a [31:0] $end
$var integer 32 < i [31:0] $end
$var integer 32 = j [31:0] $end
$var integer 32 > k [31:0] $end
$upscope $end
$scope begin loop[0] $end
$upscope $end
$scope begin loop[1] $end
$upscope $end
$scope begin loop[2] $end
$upscope $end
$scope begin loop[3] $end
$upscope $end
$scope begin loop1[1] $end
$upscope $end
$scope begin loop1[2] $end
$upscope $end
$scope begin loop1[3] $end
$upscope $end
$scope begin pifo_loop[0] $end
$scope module u_PIFO $end
$var wire 1 " i_arst_n $end
$var wire 1 # i_clk $end
$var wire 20 ? i_my_addr [19:0] $end
$var wire 1 @ i_pop $end
$var wire 10 A i_pop_data [9:0] $end
$var wire 1 B i_push $end
$var wire 10 C i_push_data [9:0] $end
$var wire 80 D i_read_data [79:0] $end
$var wire 20 E o_child_addr [19:0] $end
$var wire 1 F o_read $end
$var wire 20 G o_read_addr [19:0] $end
$var wire 20 H o_write_addr [19:0] $end
$var wire 1 I read $end
$var wire 80 J o_write_data [79:0] $end
$var wire 1 K o_write $end
$var wire 10 L o_push_data [9:0] $end
$var wire 1 M o_push $end
$var wire 10 N o_pop_data [9:0] $end
$var wire 1 O o_pop $end
$var reg 20 P child_addr [19:0] $end
$var reg 2 Q fsm [1:0] $end
$var reg 10 R ipushd_latch [9:0] $end
$var reg 2 S min_data_port [1:0] $end
$var reg 2 T min_sub_tree [1:0] $end
$var reg 20 U my_addr [19:0] $end
$var reg 1 O pop $end
$var reg 10 V pop_data [9:0] $end
$var reg 1 M push $end
$var reg 10 W push_data [9:0] $end
$var reg 80 X wdata [79:0] $end
$var reg 1 K write $end
$upscope $end
$upscope $end
$scope begin pifo_loop[1] $end
$scope module u_PIFO $end
$var wire 1 " i_arst_n $end
$var wire 1 # i_clk $end
$var wire 20 Y i_my_addr [19:0] $end
$var wire 1 Z i_pop $end
$var wire 10 [ i_pop_data [9:0] $end
$var wire 1 \ i_push $end
$var wire 10 ] i_push_data [9:0] $end
$var wire 80 ^ i_read_data [79:0] $end
$var wire 20 _ o_child_addr [19:0] $end
$var wire 1 ` o_read $end
$var wire 20 a o_read_addr [19:0] $end
$var wire 20 b o_write_addr [19:0] $end
$var wire 1 c read $end
$var wire 80 d o_write_data [79:0] $end
$var wire 1 e o_write $end
$var wire 10 f o_push_data [9:0] $end
$var wire 1 g o_push $end
$var wire 10 h o_pop_data [9:0] $end
$var wire 1 i o_pop $end
$var reg 20 j child_addr [19:0] $end
$var reg 2 k fsm [1:0] $end
$var reg 10 l ipushd_latch [9:0] $end
$var reg 2 m min_data_port [1:0] $end
$var reg 2 n min_sub_tree [1:0] $end
$var reg 20 o my_addr [19:0] $end
$var reg 1 i pop $end
$var reg 10 p pop_data [9:0] $end
$var reg 1 g push $end
$var reg 10 q push_data [9:0] $end
$var reg 80 r wdata [79:0] $end
$var reg 1 e write $end
$upscope $end
$upscope $end
$scope begin pifo_loop[2] $end
$scope module u_PIFO $end
$var wire 1 " i_arst_n $end
$var wire 1 # i_clk $end
$var wire 20 s i_my_addr [19:0] $end
$var wire 1 t i_pop $end
$var wire 10 u i_pop_data [9:0] $end
$var wire 1 v i_push $end
$var wire 10 w i_push_data [9:0] $end
$var wire 80 x i_read_data [79:0] $end
$var wire 20 y o_child_addr [19:0] $end
$var wire 1 z o_read $end
$var wire 20 { o_read_addr [19:0] $end
$var wire 20 | o_write_addr [19:0] $end
$var wire 1 } read $end
$var wire 80 ~ o_write_data [79:0] $end
$var wire 1 !" o_write $end
$var wire 10 "" o_push_data [9:0] $end
$var wire 1 #" o_push $end
$var wire 10 $" o_pop_data [9:0] $end
$var wire 1 %" o_pop $end
$var reg 20 &" child_addr [19:0] $end
$var reg 2 '" fsm [1:0] $end
$var reg 10 (" ipushd_latch [9:0] $end
$var reg 2 )" min_data_port [1:0] $end
$var reg 2 *" min_sub_tree [1:0] $end
$var reg 20 +" my_addr [19:0] $end
$var reg 1 %" pop $end
$var reg 10 ," pop_data [9:0] $end
$var reg 1 #" push $end
$var reg 10 -" push_data [9:0] $end
$var reg 80 ." wdata [79:0] $end
$var reg 1 !" write $end
$upscope $end
$upscope $end
$scope begin pifo_loop[3] $end
$scope module u_PIFO $end
$var wire 1 " i_arst_n $end
$var wire 1 # i_clk $end
$var wire 20 /" i_my_addr [19:0] $end
$var wire 1 0" i_pop $end
$var wire 10 1" i_pop_data [9:0] $end
$var wire 1 2" i_push $end
$var wire 10 3" i_push_data [9:0] $end
$var wire 80 4" i_read_data [79:0] $end
$var wire 20 5" o_child_addr [19:0] $end
$var wire 1 6" o_pop $end
$var wire 1 7" o_push $end
$var wire 10 8" o_push_data [9:0] $end
$var wire 1 9" o_read $end
$var wire 20 :" o_read_addr [19:0] $end
$var wire 20 ;" o_write_addr [19:0] $end
$var wire 1 <" read $end
$var wire 80 =" o_write_data [79:0] $end
$var wire 1 >" o_write $end
$var wire 10 ?" o_pop_data [9:0] $end
$var reg 20 @" child_addr [19:0] $end
$var reg 2 A" fsm [1:0] $end
$var reg 10 B" ipushd_latch [9:0] $end
$var reg 2 C" min_data_port [1:0] $end
$var reg 2 D" min_sub_tree [1:0] $end
$var reg 20 E" my_addr [19:0] $end
$var reg 1 F" pop $end
$var reg 10 G" pop_data [9:0] $end
$var reg 1 H" push $end
$var reg 10 I" push_data [9:0] $end
$var reg 80 J" wdata [79:0] $end
$var reg 1 >" write $end
$upscope $end
$upscope $end
$scope begin sram_inst[1] $end
$scope module u_INFER_SDPRAM $end
$var wire 1 " i_arst_n $end
$var wire 1 # i_clk $end
$var wire 2 K" i_raddr [1:0] $end
$var wire 1 L" i_re $end
$var wire 2 M" i_waddr [1:0] $end
$var wire 80 N" i_wdata [79:0] $end
$var wire 1 O" i_we $end
$var reg 80 P" o_rdata [79:0] $end
$var integer 32 Q" i [31:0] $end
$scope begin genblk3 $end
$upscope $end
$upscope $end
$upscope $end
$scope begin sram_inst[2] $end
$scope module u_INFER_SDPRAM $end
$var wire 1 " i_arst_n $end
$var wire 1 # i_clk $end
$var wire 4 R" i_raddr [3:0] $end
$var wire 1 S" i_re $end
$var wire 4 T" i_waddr [3:0] $end
$var wire 80 U" i_wdata [79:0] $end
$var wire 1 V" i_we $end
$var reg 80 W" o_rdata [79:0] $end
$var integer 32 X" i [31:0] $end
$scope begin genblk3 $end
$upscope $end
$upscope $end
$upscope $end
$scope begin sram_inst[3] $end
$scope module u_INFER_SDPRAM $end
$var wire 1 " i_arst_n $end
$var wire 1 # i_clk $end
$var wire 6 Y" i_raddr [5:0] $end
$var wire 1 Z" i_re $end
$var wire 6 [" i_waddr [5:0] $end
$var wire 80 \" i_wdata [79:0] $end
$var wire 1 ]" i_we $end
$var reg 80 ^" o_rdata [79:0] $end
$var integer 32 _" i [31:0] $end
$scope begin genblk3 $end
$upscope $end
$upscope $end
$upscope $end
$scope module root $end
$var wire 1 " i_arst_n $end
$var wire 1 # i_clk $end
$var wire 1 `" i_raddr $end
$var wire 1 a" i_re $end
$var wire 1 b" i_waddr $end
$var wire 80 c" i_wdata [79:0] $end
$var wire 1 d" i_we $end
$var reg 80 e" o_rdata [79:0] $end
$var integer 32 f" i [31:0] $end
$scope begin genblk3 $end
$upscope $end
$upscope $end
$upscope $end
$upscope $end
$enddefinitions $end
#0
$dumpvars
b10 f"
bx e"
0d"
b0 c"
0b"
0a"
0`"
b1000000 _"
bx ^"
0]"
b0 \"
b0 ["
0Z"
b111111 Y"
b10000 X"
bx W"
0V"
b0 U"
b0 T"
0S"
b1111 R"
b100 Q"
bx P"
0O"
b0 N"
b0 M"
0L"
b11 K"
b0 J"
b0 I"
0H"
b1111111111 G"
0F"
b0 E"
bx D"
bx C"
b0 B"
b0 A"
b11111111111111111111 @"
b1111111111 ?"
0>"
b0 ="
0<"
b0 ;"
b11111111111111111111 :"
09"
b0 8"
07"
06"
b11111111111111111111 5"
bx 4"
b0 3"
02"
b1111111111 1"
00"
b11111111111111111111 /"
b0 ."
b0 -"
b1111111111 ,"
b0 +"
bx *"
bx )"
b0 ("
b0 '"
b11111111111111111111 &"
0%"
b1111111111 $"
0#"
b0 ""
0!"
b0 ~
0}
b0 |
b11111111111111111111 {
0z
b11111111111111111111 y
bx x
b0 w
0v
b1111111111 u
0t
b11111111111111111111 s
b0 r
b0 q
b1111111111 p
b0 o
bx n
bx m
b0 l
b0 k
b11111111111111111111 j
0i
b1111111111 h
0g
b0 f
0e
b0 d
0c
b0 b
b11111111111111111111 a
0`
b11111111111111111111 _
bx ^
b0 ]
0\
b1111111111 [
0Z
b11111111111111111111 Y
b0 X
b0 W
b1111111111 V
b0 U
bx T
bx S
b0 R
b0 Q
b11111111111111111111 P
0O
b1111111111 N
0M
b0 L
0K
b0 J
0I
b0 H
b0 G
0F
b11111111111111111111 E
bx D
bx C
0B
b1111111111 A
0@
b0 ?
bx >
bx =
bx <
bx ;
bx :
bx 9
bx 8
bx 7
bx 6
bx 5
bx 4
bx 3
b0 2
b0 1
b1111111111110 0
b0 /
b0 .
b0 -
b0 ,
b0 +
b1111111111 *
bx )
b1 (
b110010 '
bx &
0%
0$
0#
0"
b1111111111 !
$end
#400
1#
#800
0#
#1200
1#
#1600
0#
#2000
1#
#2400
0#
#2800
1#
#3200
0#
#3600
1#
#4000
0#
#4400
1#
#4800
0#
#5200
1#
#5600
0#
#6000
1#
#6400
0#
#6800
1#
#7200
0#
#7600
1#
#8000
0#
#8400
1#
#8800
0#
#9200
1#
#9600
0#
#10000
1#
#10400
0#
#10800
1#
#11200
0#
#11600
1#
#12000
0#
#12400
1#
#12800
0#
#13200
1#
#13600
0#
#14000
1#
#14400
0#
#14800
1#
#15200
0#
#15600
1#
#16000
0#
#16400
1#
#16800
0#
#17200
1#
#17600
0#
#18000
1#
#18400
0#
#18800
1#
#19200
0#
#19600
1#
#20000
0#
#20400
1#
#20800
0#
#21200
1#
#21600
0#
#22000
1#
#22400
0#
#22800
1#
#23200
0#
#23600
1#
#24000
0#
#24400
1#
#24800
0#
#25200
1#
#25600
0#
#26000
1#
#26400
0#
#26800
1#
#27200
0#
#27600
1#
#28000
0#
#28400
1#
#28800
0#
#29200
1#
#29600
0#
#30000
1#
#30400
0#
#30800
1#
#31200
0#
#31600
1#
#32000
0#
#32400
1#
#32800
0#
#33200
1#
#33600
0#
#34000
1#
#34400
0#
#34800
1#
#35200
0#
#35600
1#
#36000
0#
#36400
1#
#36800
0#
#37200
1#
#37600
0#
#38000
1#
#38400
0#
#38800
1#
#39200
0#
#39600
1#
#40000
0#
b0 '
1"
#40400
1a"
b1 /
b1 .
1F
1I
1B
b1 '
b1 1
1%
b1001000111 C
b1001000111 &
b1001000111 )
1#
#40800
0#
#41200
b0 K"
1d"
b1111111111000 0
b1 ,
b1111111111000000000011111111110000000000111111111100000000010100000001 c"
b1111111111000000000011111111110000000000111111111100000000010100000001 J
b1111111111000000000011111111110000000000111111111100000000010100000001 X
b0 a
b0 Y
b0 E
b0 P
b1 +
1K
b100000001 R
b1 Q
b0 S
b0 T
b10 '
b100000001 C
b100000001 &
b100000001 )
b1111111111000000000011111111110000000000111111111100000000001111111111 D
b1111111111000000000011111111110000000000111111111100000000001111111111 e"
1#
#41600
0#
#42000
b10001 R
0L"
b1 /
b1 K"
b1 .
0`
0c
b1111111111010 0
b1 a
b1 Y
b1 E
b1 P
0\
b1 T
b1111111111000000000011111111110000000001000001000100000000010100000001 c"
b1111111111000000000011111111110000000001000001000100000000010100000001 J
b1111111111000000000011111111110000000001000001000100000000010100000001 X
b0 ]
b0 L
b0 W
b1 1
0M
b11 '
b10001 C
b10001 &
b10001 )
b1111111111000000000011111111110000000000111111111100000000010100000001 D
b1111111111000000000011111111110000000000111111111100000000010100000001 e"
1#
#42400
0#
#42800
b11000110 R
0L"
b1 /
b10 K"
b1 .
0`
0c
b1111111111100 0
b10 a
b10 Y
b10 E
b10 P
0\
b1 S
b10 T
b1111111111000000000100110001100000000001000001000100000000010100000001 c"
b1111111111000000000100110001100000000001000001000100000000010100000001 J
b1111111111000000000100110001100000000001000001000100000000010100000001 X
b0 ]
b0 L
b0 W
b1 1
0M
b100 '
b11000110 C
b11000110 &
b11000110 )
b1111111111000000000011111111110000000001000001000100000000010100000001 D
b1111111111000000000011111111110000000001000001000100000000010100000001 e"
1#
#43200
0#
#43600
b1000011001 R
0L"
b1 /
b11 K"
b1 .
0`
0c
b1111111111110 0
b11 a
b11 Y
b11 E
b11 P
0\
b11 T
b11000011001000000000100110001100000000001000001000100000000010100000001 c"
b11000011001000000000100110001100000000001000001000100000000010100000001 J
b11000011001000000000100110001100000000001000001000100000000010100000001 X
b0 ]
b0 L
b0 W
b1 1
0M
b101 '
b1000011001 C
b1000011001 &
b1000011001 )
b1111111111000000000100110001100000000001000001000100000000010100000001 D
b1111111111000000000100110001100000000001000001000100000000010100000001 e"
1#
#44000
0#
#44400
b1100011010 R
1L"
b11 /
b0 K"
b11 .
1`
1c
b1111111111000 0
b0 a
b0 Y
b0 E
b0 P
1\
b0 T
b11000011001000000000100110001100000000001000001000100000000100100000001 c"
b11000011001000000000100110001100000000001000001000100000000100100000001 J
b11000011001000000000100110001100000000001000001000100000000100100000001 X
b1100011010 ]
b1100011010 L
b1100011010 W
b11 1
1M
b110 '
b1100011010 C
b1100011010 &
b1100011010 )
b11000011001000000000100110001100000000001000001000100000000010100000001 D
b11000011001000000000100110001100000000001000001000100000000010100000001 e"
1#
#44800
0#
#45200
b0 R"
1O"
b11 ,
b1111111111000000000011111111110000000000111111111100000000011100011010 N"
b1111111111000000000011111111110000000000111111111100000000011100011010 d
b1111111111000000000011111111110000000000111111111100000000011100011010 r
b0 {
b0 s
b0 _
b0 j
b11 +
1e
b11001010 ]
b11001010 L
b11001010 W
b1100011010 l
b1 k
b11001010 R
b1 K"
b1111110000010 0
b1 a
b1 Y
b1 E
b1 P
b0 m
b0 n
b1 T
b11000011001000000000100110001100000000010000001000100000000100100000001 c"
b11000011001000000000100110001100000000010000001000100000000100100000001 J
b11000011001000000000100110001100000000010000001000100000000100100000001 X
b111 '
b11001010 C
b11001010 &
b11001010 )
b1111111111000000000011111111110000000000111111111100000000001111111111 ^
b1111111111000000000011111111110000000000111111111100000000001111111111 P"
b11000011001000000000100110001100000000001000001000100000000100100000001 D
b11000011001000000000100110001100000000001000001000100000000100100000001 e"
1#
#45600
0#
#46000
b100 R"
b1 M"
b11000110 ]
b11000110 L
b11000110 W
b10 -
b1111111111000000000011111111110000000000111111111100000000010011001010 N"
b1111111111000000000011111111110000000000111111111100000000010011001010 d
b1111111111000000000011111111110000000000111111111100000000010011001010 r
b100 {
b100 s
b100 _
b100 j
b100011 R
b1 b
b1 o
b11001010 l
b10 K"
b1111110100100 0
b10 a
b10 Y
b10 E
b10 P
b10 T
b11000011001000000001000001000110000000010000001000100000000100100000001 c"
b11000011001000000001000001000110000000010000001000100000000100100000001 J
b11000011001000000001000001000110000000010000001000100000000100100000001 X
b1000 '
b100011 C
b100011 &
b100011 )
b11000011001000000000100110001100000000010000001000100000000100100000001 D
b11000011001000000000100110001100000000010000001000100000000100100000001 e"
1#
#46400
0#
#46800
b1000 R"
b10 M"
b100 -
b1111111111000000000011111111110000000000111111111100000000010011000110 N"
b1111111111000000000011111111110000000000111111111100000000010011000110 d
b1111111111000000000011111111110000000000111111111100000000010011000110 r
b1000 {
b1000 s
b1000 _
b1000 j
b10 b
b10 o
b11000110 l
b1000000010 R
b11 K"
b1111111000110 0
b11 a
b11 Y
b11 E
b11 P
b11 T
b101000000010000000001000001000110000000010000001000100000000100100000001 c"
b101000000010000000001000001000110000000010000001000100000000100100000001 J
b101000000010000000001000001000110000000010000001000100000000100100000001 X
b1000011001 ]
b1000011001 L
b1000011001 W
b1001 '
b1000000010 C
b1000000010 &
b1000000010 )
b11000011001000000001000001000110000000010000001000100000000100100000001 D
b11000011001000000001000001000110000000010000001000100000000100100000001 e"
1#
#47200
0#
#47600
b1100 R"
b11 M"
b110 -
b1111111111000000000011111111110000000000111111111100000000011000011001 N"
b1111111111000000000011111111110000000000111111111100000000011000011001 d
b1111111111000000000011111111110000000000111111111100000000011000011001 r
b1100 {
b1100 s
b1100 _
b1100 j
b1000011010 R
b11 b
b11 o
b1000011001 l
b0 K"
b1111111100000 0
b0 a
b0 Y
b0 E
b0 P
b0 T
b101000000010000000001000001000110000000010000001000100000000110100000001 c"
b101000000010000000001000001000110000000010000001000100000000110100000001 J
b101000000010000000001000001000110000000010000001000100000000110100000001 X
b1000011010 ]
b1000011010 L
b1000011010 W
b1010 '
b1000011010 C
b1000011010 &
b1000011010 )
b101000000010000000001000001000110000000010000001000100000000100100000001 D
b101000000010000000001000001000110000000010000001000100000000100100000001 e"
1#
#48000
0#
#48400
b0 M"
b0 -
b1011101011 ]
b1011101011 L
b1011101011 W
b0 b
b0 o
b1000011010 l
b1011101011 R
0S"
b11 /
b1 R"
b11 .
0z
0}
b1 K"
b1111110001010 0
b1 {
b1 s
b1 _
b1 j
0v
b1 a
b1 Y
b1 E
b1 P
b1 n
b1111111111000000000011111111110000000001100001101000000000011100011010 N"
b1111111111000000000011111111110000000001100001101000000000011100011010 d
b1111111111000000000011111111110000000001100001101000000000011100011010 r
b0 w
b0 f
b0 q
b11 1
0g
b1 T
b101000000010000000001000001000110000000011000001000100000000110100000001 c"
b101000000010000000001000001000110000000011000001000100000000110100000001 J
b101000000010000000001000001000110000000011000001000100000000110100000001 X
b1011 '
b1011101011 C
b1011101011 &
b1011101011 )
b1111111111000000000011111111110000000000111111111100000000011100011010 ^
b1111111111000000000011111111110000000000111111111100000000011100011010 P"
b101000000010000000001000001000110000000010000001000100000000110100000001 D
b101000000010000000001000001000110000000010000001000100000000110100000001 e"
1#
#48800
0#
#49200
b101 R"
b1 M"
b1001111001 ]
b1001111001 L
b1001111001 W
b10 -
b101 {
b101 s
b101 _
b101 j
b1001111001 R
b1 b
b1 o
b1011101011 l
b10 K"
b1111110101100 0
b10 a
b10 Y
b10 E
b10 P
b10 T
b101000000010000000001100001000110000000011000001000100000000110100000001 c"
b101000000010000000001100001000110000000011000001000100000000110100000001 J
b101000000010000000001100001000110000000011000001000100000000110100000001 X
b1111111111000000000011111111110000000001101110101100000000010011001010 N"
b1111111111000000000011111111110000000001101110101100000000010011001010 d
b1111111111000000000011111111110000000001101110101100000000010011001010 r
b1100 '
b1001111001 C
b1001111001 &
b1001111001 )
b101000000010000000001000001000110000000011000001000100000000110100000001 D
b101000000010000000001000001000110000000011000001000100000000110100000001 e"
b1111111111000000000011111111110000000000111111111100000000010011001010 ^
b1111111111000000000011111111110000000000111111111100000000010011001010 P"
1#
#49600
0#
#50000
b1001 R"
b10 M"
b100 -
b1001 {
b1001 s
b1001 _
b1001 j
b1111011010 ]
b1111011010 L
b1111011010 W
b10 b
b10 o
b1001111001 l
b1111011010 R
b11 K"
b1111111001110 0
b11 a
b11 Y
b11 E
b11 P
b1111111111000000000011111111110000000001100111100100000000010011000110 N"
b1111111111000000000011111111110000000001100111100100000000010011000110 d
b1111111111000000000011111111110000000001100111100100000000010011000110 r
b11 T
b111000000010000000001100001000110000000011000001000100000000110100000001 c"
b111000000010000000001100001000110000000011000001000100000000110100000001 J
b111000000010000000001100001000110000000011000001000100000000110100000001 X
b1101 '
b1111011010 C
b1111011010 &
b1111011010 )
b1111111111000000000011111111110000000000111111111100000000010011000110 ^
b1111111111000000000011111111110000000000111111111100000000010011000110 P"
b101000000010000000001100001000110000000011000001000100000000110100000001 D
b101000000010000000001100001000110000000011000001000100000000110100000001 e"
1#
#50400
0#
#50800
b1101 R"
b11 M"
b1100010111 ]
b1100010111 L
b1100010111 W
b110 -
b1101 {
b1101 s
b1101 _
b1101 j
b1100010111 R
b11 b
b11 o
b1111011010 l
b0 K"
b1111111101000 0
b0 a
b0 Y
b0 E
b0 P
b0 T
b111000000010000000001100001000110000000011000001000100000001000100000001 c"
b111000000010000000001100001000110000000011000001000100000001000100000001 J
b111000000010000000001100001000110000000011000001000100000001000100000001 X
b1111111111000000000011111111110000000001111101101000000000011000011001 N"
b1111111111000000000011111111110000000001111101101000000000011000011001 d
b1111111111000000000011111111110000000001111101101000000000011000011001 r
b1110 '
b1100010111 C
b1100010111 &
b1100010111 )
b111000000010000000001100001000110000000011000001000100000000110100000001 D
b111000000010000000001100001000110000000011000001000100000000110100000001 e"
b1111111111000000000011111111110000000000111111111100000000011000011001 ^
b1111111111000000000011111111110000000000111111111100000000011000011001 P"
1#
#51200
0#
#51600
b0 M"
b0 -
b1111110010 ]
b1111110010 L
b1111110010 W
b0 b
b0 o
b1100010111 l
b1111110010 R
0S"
b11 /
b10 R"
b11 .
0z
0}
b1 K"
b1111110010010 0
b10 {
b10 s
b10 _
b10 j
0v
b1 a
b1 Y
b1 E
b1 P
b1 m
b10 n
b1111111111000000000111000101110000000001100001101000000000011100011010 N"
b1111111111000000000111000101110000000001100001101000000000011100011010 d
b1111111111000000000111000101110000000001100001101000000000011100011010 r
b0 w
b0 f
b0 q
b11 1
0g
b1 T
b111000000010000000001100001000110000000100000001000100000001000100000001 c"
b111000000010000000001100001000110000000100000001000100000001000100000001 J
b111000000010000000001100001000110000000100000001000100000001000100000001 X
b1111 '
b1111110010 C
b1111110010 &
b1111110010 )
b1111111111000000000011111111110000000001100001101000000000011100011010 ^
b1111111111000000000011111111110000000001100001101000000000011100011010 P"
b111000000010000000001100001000110000000011000001000100000001000100000001 D
b111000000010000000001100001000110000000011000001000100000001000100000001 e"
1#
#52000
0#
#52400
b110 R"
b1 M"
b110001011 ]
b110001011 L
b110001011 W
b10 -
b110 {
b110 s
b110 _
b110 j
b110001011 R
b1 b
b1 o
b1111110010 l
b10 K"
b1111110110100 0
b10 a
b10 Y
b10 E
b10 P
b10 T
b111000000010000000010000001000110000000100000001000100000001000100000001 c"
b111000000010000000010000001000110000000100000001000100000001000100000001 J
b111000000010000000010000001000110000000100000001000100000001000100000001 X
b0 m
b1111111111000000000111111100100000000001101110101100000000010011001010 N"
b1111111111000000000111111100100000000001101110101100000000010011001010 d
b1111111111000000000111111100100000000001101110101100000000010011001010 r
b10000 '
b110001011 C
b110001011 &
b110001011 )
b111000000010000000001100001000110000000100000001000100000001000100000001 D
b111000000010000000001100001000110000000100000001000100000001000100000001 e"
b1111111111000000000011111111110000000001101110101100000000010011001010 ^
b1111111111000000000011111111110000000001101110101100000000010011001010 P"
1#
#52800
0#
#53200
b1010 R"
b10 M"
b100 -
b1010 {
b1010 s
b1010 _
b1010 j
b10 b
b10 o
b110001011 l
b110001010 R
b11 K"
b1111111010110 0
b1000000010 ]
b1000000010 L
b1000000010 W
b11 a
b11 Y
b11 E
b11 P
b1111111111000000000101100010110000000001100111100100000000010011000110 N"
b1111111111000000000101100010110000000001100111100100000000010011000110 d
b1111111111000000000101100010110000000001100111100100000000010011000110 r
b11 T
b1000110001010000000010000001000110000000100000001000100000001000100000001 c"
b1000110001010000000010000001000110000000100000001000100000001000100000001 J
b1000110001010000000010000001000110000000100000001000100000001000100000001 X
b10001 '
b110001010 C
b110001010 &
b110001010 )
b1111111111000000000011111111110000000001100111100100000000010011000110 ^
b1111111111000000000011111111110000000001100111100100000000010011000110 P"
b111000000010000000010000001000110000000100000001000100000001000100000001 D
b111000000010000000010000001000110000000100000001000100000001000100000001 e"
1#
#53600
0#
#54000
b1110 R"
b11 M"
b110 -
b1110 {
b1110 s
b1110 _
b1110 j
b101010011 R
b11 b
b11 o
b1000000010 l
b0 K"
b1111111110000 0
b0 a
b0 Y
b0 E
b0 P
b0 T
b1000110001010000000010000001000110000000100000001000100000001010100000001 c"
b1000110001010000000010000001000110000000100000001000100000001010100000001 J
b1000110001010000000010000001000110000000100000001000100000001010100000001 X
b101010011 ]
b101010011 L
b101010011 W
b1111111111000000000110000000100000000001111101101000000000011000011001 N"
b1111111111000000000110000000100000000001111101101000000000011000011001 d
b1111111111000000000110000000100000000001111101101000000000011000011001 r
b10010 '
b101010011 C
b101010011 &
b101010011 )
b1000110001010000000010000001000110000000100000001000100000001000100000001 D
b1000110001010000000010000001000110000000100000001000100000001000100000001 e"
b1111111111000000000011111111110000000001111101101000000000011000011001 ^
b1111111111000000000011111111110000000001111101101000000000011000011001 P"
1#
#54400
0#
#54800
b0 M"
b0 -
b1111001001 ]
b1111001001 L
b1111001001 W
b0 b
b0 o
b101010011 l
b1111001001 R
0S"
b11 /
b11 R"
b11 .
0z
0}
b1 K"
b1111110011010 0
b11 {
b11 s
b11 _
b11 j
0v
b1 a
b1 Y
b1 E
b1 P
b1 m
b11 n
b10101010011000000000111000101110000000001100001101000000000011100011010 N"
b10101010011000000000111000101110000000001100001101000000000011100011010 d
b10101010011000000000111000101110000000001100001101000000000011100011010 r
b0 w
b0 f
b0 q
b11 1
0g
b1 T
b1000110001010000000010000001000110000000101000001000100000001010100000001 c"
b1000110001010000000010000001000110000000101000001000100000001010100000001 J
b1000110001010000000010000001000110000000101000001000100000001010100000001 X
b10011 '
b1111001001 C
b1111001001 &
b1111001001 )
b1111111111000000000111000101110000000001100001101000000000011100011010 ^
b1111111111000000000111000101110000000001100001101000000000011100011010 P"
b1000110001010000000010000001000110000000100000001000100000001010100000001 D
b1000110001010000000010000001000110000000100000001000100000001010100000001 e"
1#
#55200
0#
#55600
b111 R"
b1 M"
b11101110 ]
b11101110 L
b11101110 W
b10 -
b111 {
b111 s
b111 _
b111 j
b11101110 R
b1 b
b1 o
b1111001001 l
b10 K"
b1111110111100 0
b10 a
b10 Y
b10 E
b10 P
b10 T
b1000110001010000000010100001000110000000101000001000100000001010100000001 c"
b1000110001010000000010100001000110000000101000001000100000001010100000001 J
b1000110001010000000010100001000110000000101000001000100000001010100000001 X
b0 m
b11111001001000000000111111100100000000001101110101100000000010011001010 N"
b11111001001000000000111111100100000000001101110101100000000010011001010 d
b11111001001000000000111111100100000000001101110101100000000010011001010 r
b10100 '
b11101110 C
b11101110 &
b11101110 )
b1000110001010000000010000001000110000000101000001000100000001010100000001 D
b1000110001010000000010000001000110000000101000001000100000001010100000001 e"
b1111111111000000000111111100100000000001101110101100000000010011001010 ^
b1111111111000000000111111100100000000001101110101100000000010011001010 P"
1#
#56000
0#
#56400
b1011 R"
b10 M"
b100 -
b1011 {
b1011 s
b1011 _
b1011 j
b10 b
b10 o
b11101110 l
b100011 R
b11 K"
b1111111011110 0
b110001010 ]
b110001010 L
b110001010 W
b11 a
b11 Y
b11 E
b11 P
b10011101110000000000101100010110000000001100111100100000000010011000110 N"
b10011101110000000000101100010110000000001100111100100000000010011000110 d
b10011101110000000000101100010110000000001100111100100000000010011000110 r
b11 T
b1010000100011000000010100001000110000000101000001000100000001010100000001 c"
b1010000100011000000010100001000110000000101000001000100000001010100000001 J
b1010000100011000000010100001000110000000101000001000100000001010100000001 X
b10101 '
b100011 C
b100011 &
b100011 )
b1111111111000000000101100010110000000001100111100100000000010011000110 ^
b1111111111000000000101100010110000000001100111100100000000010011000110 P"
b1000110001010000000010100001000110000000101000001000100000001010100000001 D
b1000110001010000000010100001000110000000101000001000100000001010100000001 e"
1#
#56800
0#
#57200
b1111 R"
b11 M"
b110 -
b1111 {
b1111 s
b1111 _
b1111 j
b1100011110 R
b11 b
b11 o
b110001010 l
b0 K"
b1111111111000 0
b0 a
b0 Y
b0 E
b0 P
b0 T
b1010000100011000000010100001000110000000101000001000100000001100100000001 c"
b1010000100011000000010100001000110000000101000001000100000001100100000001 J
b1010000100011000000010100001000110000000101000001000100000001100100000001 X
b1100011110 ]
b1100011110 L
b1100011110 W
b10 m
b10110001010000000000110000000100000000001111101101000000000011000011001 N"
b10110001010000000000110000000100000000001111101101000000000011000011001 d
b10110001010000000000110000000100000000001111101101000000000011000011001 r
b10110 '
b1100011110 C
b1100011110 &
b1100011110 )
b1010000100011000000010100001000110000000101000001000100000001010100000001 D
b1010000100011000000010100001000110000000101000001000100000001010100000001 e"
b1111111111000000000110000000100000000001111101101000000000011000011001 ^
b1111111111000000000110000000100000000001111101101000000000011000011001 P"
1#
#57600
0#
