BMW_PIFO_SRAM_vPIFO_8/wave.vcd
$date
	Sun Oct 22 21:15:31 2023
$end
$version
	Icarus Verilog
$end
$timescale
	1ps
$end
$scope module TC $end
$var wire 16 ! pop_data_0 [15:0] $end
$var wire 16 " pop_data_1 [15:0] $end
$var wire 16 # push_data_0 [15:0] $end
$var wire 16 $ push_data_1 [15:0] $end
$var wire 2 % task_fifo_full [1:0] $end
$var reg 1 & arst_n $end
$var reg 1 ' clk $end
$var reg 2 ( pop [1:0] $end
$var reg 2 ) push [1:0] $end
$var integer 32 * i [31:0] $end
$var integer 32 + seed [31:0] $end
$scope module u_PIFO_TOP $end
$var wire 19 , TaskFIFO_push_data_0 [18:0] $end
$var wire 19 - TaskFIFO_push_data_1 [18:0] $end
$var wire 1 & i_arst_n $end
$var wire 1 ' i_clk $end
$var wire 2 . i_pop [1:0] $end
$var wire 2 / i_push [1:0] $end
$var wire 16 0 rpu_push_data_0 [15:0] $end
$var wire 16 1 rpu_push_data_1 [15:0] $end
$var wire 2 2 rpu_state_nxt_0 [1:0] $end
$var wire 2 3 rpu_state_nxt_1 [1:0] $end
$var wire 2 4 rpu_treeId_0 [1:0] $end
$var wire 2 5 rpu_treeId_1 [1:0] $end
$var wire 2 6 tree_id_dn_0 [1:0] $end
$var wire 2 7 write [1:0] $end
$var wire 2 8 we [1:0] $end
$var wire 2 9 rpu_push [1:0] $end
$var wire 2 : rpu_pop [1:0] $end
$var wire 2 ; read [1:0] $end
$var wire 2 < re [1:0] $end
$var wire 2 = push_up [1:0] $end
$var wire 2 > push_dn [1:0] $end
$var wire 2 ? push_TaskFIFO [1:0] $end
$var wire 2 @ pop_up [1:0] $end
$var wire 2 A pop_dn [1:0] $end
$var wire 2 B pop_TaskFIFO [1:0] $end
$var wire 2 C o_task_fifo_full [1:0] $end
$var wire 2 D o_is_level0_pop [1:0] $end
$var wire 2 E is_level0_pop [1:0] $end
$var wire 2 F TaskFIFO_full [1:0] $end
$var wire 2 G TaskFIFO_empty [1:0] $end
$scope begin genblk2[0] $end
$upscope $end
$scope begin genblk2[1] $end
$upscope $end
$scope begin genblk3[0] $end
$upscope $end
$scope begin genblk3[1] $end
$upscope $end
$scope begin genblk7[0] $end
$scope module tf $end
$var wire 1 ' clk $end
$var wire 12 H o_fifo_counter [11:0] $end
$var wire 1 I rd_en $end
$var wire 1 J rst $end
$var wire 1 K wr_en $end
$var wire 19 L buf_out [18:0] $end
$var wire 19 M buf_in [18:0] $end
$var wire 1 N buf_full $end
$var wire 1 O buf_empty $end
$var reg 1 P buf_empty_last $end
$var reg 19 Q buf_rd [18:0] $end
$var reg 12 R fifo_counter [11:0] $end
$var reg 12 S fifo_counter_nxt [11:0] $end
$var reg 1 T rd_en_last $end
$var reg 11 U rd_ptr [10:0] $end
$var reg 11 V rd_ptr_nxt [10:0] $end
$var reg 1 W wr_en_last $end
$var reg 11 X wr_ptr [10:0] $end
$var reg 11 Y wr_ptr_nxt [10:0] $end
$upscope $end
$upscope $end
$scope begin genblk7[1] $end
$scope module tf $end
$var wire 1 ' clk $end
$var wire 12 Z o_fifo_counter [11:0] $end
$var wire 1 [ rd_en $end
$var wire 1 \ rst $end
$var wire 1 ] wr_en $end
$var wire 19 ^ buf_out [18:0] $end
$var wire 19 _ buf_in [18:0] $end
$var wire 1 ` buf_full $end
$var wire 1 a buf_empty $end
$var reg 1 b buf_empty_last $end
$var reg 19 c buf_rd [18:0] $end
$var reg 12 d fifo_counter [11:0] $end
$var reg 12 e fifo_counter_nxt [11:0] $end
$var reg 1 f rd_en_last $end
$var reg 11 g rd_ptr [10:0] $end
$var reg 11 h rd_ptr_nxt [10:0] $end
$var reg 1 i wr_en_last $end
$var reg 11 j wr_ptr [10:0] $end
$var reg 11 k wr_ptr_nxt [10:0] $end
$upscope $end
$upscope $end
$scope begin genblk8[0] $end
$upscope $end
$scope begin genblk8[1] $end
$upscope $end
$scope begin loop[0] $end
$upscope $end
$scope begin loop[1] $end
$upscope $end
$scope begin loop1[0] $end
$upscope $end
$scope begin pifo_loop[0] $end
$scope module u_PIFO $end
$var wire 1 & i_arst_n $end
$var wire 1 ' i_clk $end
$var wire 1 l i_level $end
$var wire 3 m i_my_addr [2:0] $end
$var wire 1 n i_pop $end
$var wire 16 o i_pop_data [15:0] $end
$var wire 1 p i_push $end
$var wire 16 q i_push_data [15:0] $end
$var wire 256 r i_read_data [255:0] $end
$var wire 2 s i_tree_id [1:0] $end
$var wire 3 t o_child_addr [2:0] $end
$var wire 1 u o_is_level0_pop $end
$var wire 1 v o_read $end
$var wire 2 w o_tree_id [1:0] $end
$var wire 1 x read $end
$var wire 1 y read_hi $end
$var wire 1 z write_hi $end
$var wire 256 { o_write_data [255:0] $end
$var wire 5 | o_write_addr [4:0] $end
$var wire 1 } o_write $end
$var wire 5 ~ o_read_addr [4:0] $end
$var wire 16 !" o_push_data [15:0] $end
$var wire 1 "" o_push $end
$var wire 16 #" o_pop_data [15:0] $end
$var wire 1 $" o_pop $end
$var wire 1 %" o_level $end
$var reg 3 &" child_addr [2:0] $end
$var reg 1 '" cur_level $end
$var reg 2 (" cur_tree_id [1:0] $end
$var reg 2 )" fsm [1:0] $end
$var reg 16 *" ipushd_latch [15:0] $end
$var reg 3 +" min_data_port [2:0] $end
$var reg 3 ," min_sub_tree [2:0] $end
$var reg 3 -" my_addr [2:0] $end
$var reg 1 ." pop $end
$var reg 16 /" pop_data [15:0] $end
$var reg 1 0" push $end
$var reg 16 1" push_data [15:0] $end
$var reg 4 2" read_lo [3:0] $end
$var reg 5 3" read_offset [4:0] $end
$var reg 256 4" wdata [255:0] $end
$var reg 1 } write $end
$var reg 4 5" write_lo [3:0] $end
$var reg 5 6" write_offset [4:0] $end
$scope begin $ivl_for_loop0 $end
$var integer 32 7" i [31:0] $end
$upscope $end
$scope begin $ivl_for_loop1 $end
$var integer 32 8" i [31:0] $end
$upscope $end
$upscope $end
$upscope $end
$scope begin pifo_loop[1] $end
$scope module u_PIFO $end
$var wire 1 & i_arst_n $end
$var wire 1 ' i_clk $end
$var wire 1 9" i_level $end
$var wire 3 :" i_my_addr [2:0] $end
$var wire 1 ;" i_pop $end
$var wire 16 <" i_pop_data [15:0] $end
$var wire 1 =" i_push $end
$var wire 16 >" i_push_data [15:0] $end
$var wire 256 ?" i_read_data [255:0] $end
$var wire 2 @" i_tree_id [1:0] $end
$var wire 3 A" o_child_addr [2:0] $end
$var wire 1 B" o_is_level0_pop $end
$var wire 1 C" o_read $end
$var wire 2 D" o_tree_id [1:0] $end
$var wire 1 E" read $end
$var wire 1 F" read_hi $end
$var wire 1 G" write_hi $end
$var wire 256 H" o_write_data [255:0] $end
$var wire 5 I" o_write_addr [4:0] $end
$var wire 1 J" o_write $end
$var wire 5 K" o_read_addr [4:0] $end
$var wire 16 L" o_push_data [15:0] $end
$var wire 1 M" o_push $end
$var wire 16 N" o_pop_data [15:0] $end
$var wire 1 O" o_pop $end
$var wire 1 P" o_level $end
$var reg 3 Q" child_addr [2:0] $end
$var reg 1 R" cur_level $end
$var reg 2 S" cur_tree_id [1:0] $end
$var reg 2 T" fsm [1:0] $end
$var reg 16 U" ipushd_latch [15:0] $end
$var reg 3 V" min_data_port [2:0] $end
$var reg 3 W" min_sub_tree [2:0] $end
$var reg 3 X" my_addr [2:0] $end
$var reg 1 Y" pop $end
$var reg 16 Z" pop_data [15:0] $end
$var reg 1 [" push $end
$var reg 16 \" push_data [15:0] $end
$var reg 4 ]" read_lo [3:0] $end
$var reg 5 ^" read_offset [4:0] $end
$var reg 256 _" wdata [255:0] $end
$var reg 1 J" write $end
$var reg 4 `" write_lo [3:0] $end
$var reg 5 a" write_offset [4:0] $end
$scope begin $ivl_for_loop0 $end
$var integer 32 b" i [31:0] $end
$upscope $end
$scope begin $ivl_for_loop1 $end
$var integer 32 c" i [31:0] $end
$upscope $end
$upscope $end
$upscope $end
$scope begin sram_inst[0] $end
$scope module u_INFER_SDPRAM $end
$var wire 1 & i_arst_n $end
$var wire 1 ' i_clk $end
$var wire 5 d" i_raddr [4:0] $end
$var wire 1 e" i_re $end
$var wire 5 f" i_waddr [4:0] $end
$var wire 256 g" i_wdata [255:0] $end
$var wire 1 h" i_we $end
$var reg 256 i" o_rdata [255:0] $end
$var integer 32 j" i [31:0] $end
$scope begin genblk3 $end
$upscope $end
$upscope $end
$upscope $end
$scope begin sram_inst[1] $end
$scope module u_INFER_SDPRAM $end
$var wire 1 & i_arst_n $end
$var wire 1 ' i_clk $end
$var wire 5 k" i_raddr [4:0] $end
$var wire 1 l" i_re $end
$var wire 5 m" i_waddr [4:0] $end
$var wire 256 n" i_wdata [255:0] $end
$var wire 1 o" i_we $end
$var reg 256 p" o_rdata [255:0] $end
$var integer 32 q" i [31:0] $end
$scope begin genblk3 $end
$upscope $end
$upscope $end
$upscope $end
$scope module td $end
$var wire 16 r" TaskHead_PushData_1 [15:0] $end
$var wire 2 s" i_TaskFIFO_empty [1:0] $end
$var wire 1 & i_arst_n $end
$var wire 1 ' i_clk $end
$var wire 16 t" rpu_PushData_0 [15:0] $end
$var wire 16 u" rpu_PushData_1 [15:0] $end
$var wire 1 v" rpu_level_0 $end
$var wire 1 w" rpu_level_1 $end
$var wire 2 x" rpu_state_0 [1:0] $end
$var wire 2 y" rpu_state_1 [1:0] $end
$var wire 2 z" rpu_ready_nxt [1:0] $end
$var wire 2 {" rpu_push_nxt [1:0] $end
$var wire 2 |" rpu_push_new_nxt [1:0] $end
$var wire 2 }" rpu_push_inherit_nxt [1:0] $end
$var wire 2 ~" rpu_pop_nxt [1:0] $end
$var wire 2 !# rpu_pop_new_nxt [1:0] $end
$var wire 2 "# rpu_pop_inherit_nxt [1:0] $end
$var wire 2 ## o_rpu_push [1:0] $end
$var wire 2 $# o_rpu_pop [1:0] $end
$var wire 2 %# o_pop_TaskFIFO [1:0] $end
$var wire 2 &# TaskHead_valid [1:0] $end
$var wire 2 '# TaskHead_type [1:0] $end
$var wire 2 (# TaskHead_after_valid [1:0] $end
$var reg 2 )# i_TaskFIFO_empty_last [1:0] $end
$var reg 2 *# pop_TaskFIFO_last [1:0] $end
$var reg 2 +# rpu_pop [1:0] $end
$var reg 2 ,# rpu_pop_inherit [1:0] $end
$var reg 2 -# rpu_pop_inherit_pre [1:0] $end
$var reg 2 .# rpu_pop_new [1:0] $end
$var reg 2 /# rpu_push [1:0] $end
$var reg 2 0# rpu_push_inherit [1:0] $end
$var reg 2 1# rpu_push_new [1:0] $end
$scope begin genblk1[0] $end
$upscope $end
$scope begin genblk1[1] $end
$upscope $end
$scope begin genblk10[0] $end
$upscope $end
$scope begin genblk10[1] $end
$upscope $end
$scope begin genblk11[0] $end
$upscope $end
$scope begin genblk11[1] $end
$upscope $end
$scope begin genblk12[0] $end
$upscope $end
$scope begin genblk12[1] $end
$upscope $end
$scope begin genblk13[0] $end
$upscope $end
$scope begin genblk13[1] $end
$upscope $end
$scope begin genblk15[0] $end
$upscope $end
$scope begin genblk15[1] $end
$upscope $end
$scope begin genblk16[0] $end
$upscope $end
$scope begin genblk16[1] $end
$upscope $end
$scope begin genblk2[0] $end
$upscope $end
$scope begin genblk2[1] $end
$upscope $end
$scope begin genblk3[1] $end
$upscope $end
$scope begin genblk4[0] $end
$upscope $end
$scope begin genblk4[1] $end
$upscope $end
$scope begin genblk5[0] $end
$upscope $end
$scope begin genblk5[1] $end
$upscope $end
$scope begin genblk6[1] $end
$upscope $end
$scope begin genblk7[0] $end
$upscope $end
$scope begin genblk7[1] $end
$upscope $end
$scope begin genblk8[0] $end
$upscope $end
$scope begin genblk8[1] $end
$upscope $end
$scope begin genblk9[0] $end
$upscope $end
$scope begin genblk9[1] $end
$upscope $end
$scope begin $ivl_for_loop2 $end
$var integer 32 2# i [31:0] $end
$upscope $end
$upscope $end
$upscope $end
$scope begin $ivl_for_loop3 $end
$var integer 32 3# j [31:0] $end
$upscope $end
$scope begin $ivl_for_loop4 $end
$var integer 32 4# j [31:0] $end
$upscope $end
$scope begin $ivl_for_loop5 $end
$var integer 32 5# j [31:0] $end
$upscope $end
$scope begin $ivl_for_loop6 $end
$var integer 32 6# j [31:0] $end
$upscope $end
$scope begin $ivl_for_loop7 $end
$var integer 32 7# j [31:0] $end
$upscope $end
$upscope $end
$enddefinitions $end
#0
$dumpvars
bx 7#
bx 6#
bx 5#
bx 4#
b10 3#
b10 2#
bx 1#
b0 0#
b0 /#
bx .#
b0 -#
b0 ,#
b0 +#
bx *#
bx )#
b0 (#
b0 '#
b0 &#
b0 %#
bx $#
bx ##
b0 "#
b0 !#
b0 ~"
b0 }"
b0 |"
b0 {"
b11 z"
b0 y"
b0 x"
0w"
0v"
bx u"
bx t"
b11 s"
b0 r"
b100000 q"
bx p"
0o"
b0 n"
b0 m"
xl"
b0 k"
b100000 j"
bx i"
0h"
b0 g"
b0 f"
xe"
b0 d"
b1 c"
b1 b"
b0 a"
b0 `"
b0 _"
b0 ^"
b0 ]"
b0 \"
0["
b1111111111111111 Z"
0Y"
b0 X"
bx W"
bx V"
b0 U"
b0 T"
b0 S"
0R"
b111 Q"
1P"
0O"
b1111111111111111 N"
0M"
b0 L"
b0 K"
0J"
b0 I"
b0 H"
0G"
0F"
xE"
b0 D"
xC"
0B"
b111 A"
bx @"
bx ?"
bx >"
x="
b1111111111111111 <"
x;"
b0 :"
09"
b1 8"
b1 7"
b0 6"
b0 5"
b0 4"
b0 3"
b0 2"
b0 1"
00"
b1111111111111111 /"
0."
b0 -"
bx ,"
bx +"
b0 *"
b0 )"
b0 ("
0'"
b111 &"
1%"
0$"
b1111111111111111 #"
0""
b0 !"
b0 ~
0}
b0 |
b0 {
0z
0y
xx
b0 w
xv
0u
b111 t
bx s
bx r
bx q
xp
b1111111111111111 o
xn
b0 m
0l
b0 k
b0 j
xi
b0 h
b0 g
xf
b0 e
b0 d
b0 c
xb
1a
0`
b0 _
b0 ^
0]
1\
0[
b0 Z
b0 Y
b0 X
xW
b0 V
b0 U
xT
b0 S
b0 R
b0 Q
xP
1O
0N
b0 M
b0 L
0K
1J
0I
b0 H
b11 G
b0 F
b0 E
b0 D
b0 C
b0 B
b0 A
bx @
b0 ?
b0 >
bx =
bx <
bx ;
bx :
bx 9
b0 8
b0 7
b0 6
bx 5
bx 4
bz 3
bz 2
bx 1
bx 0
b0 /
b0 .
b0 -
b0 ,
b1 +
b110010 *
b0 )
b0 (
0'
0&
b0 %
bx $
bx #
b1111111111111111 "
b1111111111111111 !
$end
#4000
0e"
0l"
b0 <
0v
0x
b0 ;
0C"
0E"
0p
0="
0n
0;"
b0 q
b1111111111111111 >"
b1 7"
b1 8"
b1 b"
b0 =
b0 @
b0 s
b0 @"
1P
0W
0T
1b
0i
0f
b11 )#
b0 *#
b0 4
b0 t"
b0 0
b0 5
b0 u"
b0 1
b0 9
b0 ##
b0 1#
b0 :
b0 $#
b0 .#
1'
#8000
0'
#12000
1'
#16000
0'
#20000
1'
#24000
0'
#28000
1'
#32000
0'
#36000
1'
#40000
0'
#44000
1'
#48000
0'
#52000
1'
#56000
0'
#60000
1'
#64000
0'
#68000
1'
#72000
0'
#76000
1'
#80000
0'
#84000
1'
#88000
0'
#92000
1'
#96000
0'
#100000
1'
#104000
0'
#108000
1'
#112000
0'
#116000
1'
#120000
0'
#124000
1'
#128000
0'
#132000
1'
#136000
0'
#140000
1'
#144000
0'
#148000
1'
#152000
0'
#156000
1'
#160000
0'
#164000
1'
#168000
0'
#172000
1'
#176000
0'
#180000
1'
#184000
0'
#188000
1'
#192000
0'
#196000
1'
#200000
0'
#204000
1'
#208000
0'
#212000
1'
#216000
0'
#220000
1'
#224000
0'
#228000
1'
#232000
0'
#236000
1'
#240000
0'
#244000
1'
#248000
0'
#252000
1'
#256000
0'
#260000
1'
#264000
0'
#268000
1'
#272000
0'
#276000
1'
#280000
0'
#284000
1'
#288000
0'
#292000
1'
#296000
0'
#300000
1'
#304000
0'
#308000
1'
#312000
0'
#316000
1'
#320000
0'
#324000
1'
#328000
0'
#332000
1'
#336000
0'
#340000
1'
#344000
0'
#348000
1'
#352000
0'
#356000
1'
#360000
0'
#364000
1'
#368000
0'
#372000
1'
#376000
0'
#380000
1'
#384000
0'
#388000
1'
#392000
0'
#396000
1'
#400000
b1 7"
b1 8"
b1 b"
b1 c"
b10 2#
0'
b0 *
0J
0\
1&
#404000
bx Q
bx c
b1 k
b1 e
b1 Y
b1 7"
b1 8"
b1 b"
b1 c"
b1 S
1]
1K
b11 ?
b1010001000000000000 -
b1010001000000000000 _
b1000000000000000000 ,
b1000000000000000000 M
b1 *
b1000000000000 $
b0 #
b11 )
b11 /
b10 4#
1'
#408000
0'
#412000
b1 h
b1 V
1I
1[
b11 B
b11 %#
b1 7"
b1 8"
b1 b"
b1 c"
b1 S
b10 Y
b1 e
b10 k
0O
b1 H
b1 R
b1 X
1i
1W
b0 G
b0 s"
0a
b1 Z
b1 d
b1 j
b1010001000000000001 -
b1010001000000000001 _
b1000000000000000001 ,
b1000000000000000001 M
b10 *
b1000000000001 $
b1 #
b10 4#
1'
#416000
0'
#420000
b11 {"
b11 |"
b1 S
b1 e
b0 ~"
1I
1[
b11 B
b11 %#
b0 !#
b1000000000000 r"
b11 '#
b0 (#
b11 &#
b1000000000000000000 L
b1010001000000000000 ^
b10 h
b1 7"
b1 8"
b1 b"
b1 c"
b11 Y
b10 V
b11 k
b1 U
b10 X
b1000000000000000000 Q
0P
1T
0b
1f
b0 )#
b11 *#
b1 g
b10 j
b1010001000000000000 c
b1010001000000000010 -
b1010001000000000010 _
b1000000000000000010 ,
b1000000000000000010 M
b11 *
b1000000000010 $
b10 #
b10 4#
1'
#424000
0'
#428000
b10 e
b10 S
0[
0I
b0 B
b0 %#
1e"
1l"
b11 (#
b11 <
1v
1x
b11 ;
1C"
1E"
b1000000000001 r"
1p
1="
b1000 k"
b1000 K"
b1000 ^"
b1000 ]"
b0 |"
b11 z"
b11 =
b1000000000000 >"
b1 @"
b11 }"
b1000000000000000001 L
b1010001000000000001 ^
b1 7"
b1 8"
b1 b"
b1 c"
b100 Y
b10 V
b100 k
b10 h
b10 2#
b1000000000000000001 Q
b10 U
b11 X
b11 9
b11 ##
b11 1#
b1 5
b1000000000000 u"
b1000000000000 1
b1010001000000000001 c
b10 g
b11 j
b11 /#
b1 x"
b1 y"
b1010001000000000011 -
b1010001000000000011 _
b1000000000000000011 ,
b1000000000000000011 M
b100 *
b1000000000011 $
b11 #
b10 4#
1'
#432000
0'
#436000
b11 h
b11 V
1[
1I
b11 B
b11 %#
0e"
0l"
b0 <
b0 (#
0v
0x
b0 ;
0C"
0E"
0p
0="
b0 =
b11 {"
b11 |"
1o"
1h"
b1 q
b1000000000001 >"
b10 2#
b11 8
b0 L
b101 k
b0 ^
b10 S
b101 Y
b10 e
b0 }"
b1 7"
b1 8"
b1 b"
b1000 ]"
b1000 m"
b1000 I"
b1000 a"
b1000 `"
b1 c"
b111111111111111100000000000000001111111111111111000000000000000011111111111111110000000000000000111111111111111100000000000000001111111111111111000000000000000011111111111111110000000000000000111111111111111100000000000000010001000000000000 n"
b111111111111111100000000000000001111111111111111000000000000000011111111111111110000000000000000111111111111111100000000000000001111111111111111000000000000000011111111111111110000000000000000111111111111111100000000000000010001000000000000 H"
b111111111111111100000000000000001111111111111111000000000000000011111111111111110000000000000000111111111111111100000000000000001111111111111111000000000000000011111111111111110000000000000000111111111111111100000000000000010001000000000000 _"
b0 A"
b0 Q"
1J"
b111111111111111100000000000000001111111111111111000000000000000011111111111111110000000000000000111111111111111100000000000000001111111111111111000000000000000011111111111111110000000000000000111111111111111100000000000000010000000000000000 g"
b111111111111111100000000000000001111111111111111000000000000000011111111111111110000000000000000111111111111111100000000000000001111111111111111000000000000000011111111111111110000000000000000111111111111111100000000000000010000000000000000 {
b111111111111111100000000000000001111111111111111000000000000000011111111111111110000000000000000111111111111111100000000000000001111111111111111000000000000000011111111111111110000000000000000111111111111111100000000000000010000000000000000 4"
b0 t
b0 &"
b11 7
1}
b100 X
b1000000000000000010 Q
b10 H
b10 R
0T
0f
b0 *#
b1 t"
b1 0
b1000000000001 u"
b1000000000001 1
b0 9
b0 ##
b0 1#
b100 j
b1010001000000000010 c
b10 Z
b10 d
1w"
1v"
b11 0#
b1 D"
b1 S"
b1000000000000 U"
b1 T"
b1 )"
b1010001000000000100 -
b1010001000000000100 _
b1000000000000000100 ,
b1000000000000000100 M
b0 +"
b0 ,"
b0 V"
b0 W"
b101 *
b1000000000100 $
b100 #
b10 4#
b111111111111111100000000000000001111111111111111000000000000000011111111111111110000000000000000111111111111111100000000000000001111111111111111000000000000000011111111111111110000000000000000111111111111111100000000000000001111111111111111 r
b111111111111111100000000000000001111111111111111000000000000000011111111111111110000000000000000111111111111111100000000000000001111111111111111000000000000000011111111111111110000000000000000111111111111111100000000000000001111111111111111 i"
b111111111111111100000000000000001111111111111111000000000000000011111111111111110000000000000000111111111111111100000000000000001111111111111111000000000000000011111111111111110000000000000000111111111111111100000000000000001111111111111111 ?"
b111111111111111100000000000000001111111111111111000000000000000011111111111111110000000000000000111111111111111100000000000000001111111111111111000000000000000011111111111111110000000000000000111111111111111100000000000000001111111111111111 p"
1'
#440000
0'
#444000
b11 e
b11 S
0[
0I
b0 B
b0 %#
1e"
1l"
b11 <
b11 (#
1v
1x
b11 ;
1C"
1E"
1p
1="
b11 =
b1000000000010 r"
b11 '#
0h"
0o"
b0 |"
b11 z"
b1010001000000000010 ^
b1000000000000000010 L
b0 8
b10 2#
b11 h
b110 Y
b11 V
b110 k
b111 t
b111 &"
b0 g"
b0 {
b0 4"
0}
b1 7"
b1 8"
b1 b"
b1000 ]"
b0 m"
b0 I"
b0 a"
b1 c"
b0 `"
b111 A"
b111 Q"
b0 n"
b0 H"
b0 _"
b0 7
0J"
b11 }"
b11 U
b101 X
b11 9
b11 ##
b11 1#
b11 *#
1f
1T
b11 g
b101 j
b0 )"
b0 D"
b0 S"
b0 U"
b0 T"
b0 0#
0v"
0w"
b1010001000000000101 -
b1010001000000000101 _
b1000000000000000101 ,
b1000000000000000101 M
b110 *
b1000000000101 $
b101 #
b10 4#
1'
#448000
0'
#452000
b100 h
b100 V
1[
1I
b11 B
b11 %#
0e"
0l"
b0 <
b0 (#
0v
0x
b0 ;
0C"
0E"
0p
0="
b0 =
b11 {"
b11 |"
1o"
1h"
b10 q
b1000000000010 >"
b10 2#
b11 8
b0 L
b111 k
b0 ^
b11 S
b111 Y
b11 e
b0 }"
b1 7"
b1 8"
b1 b"
b1000 ]"
b1000 m"
b1000 I"
b1000 a"
b1000 `"
b1 c"
b111111111111111100000000000000001111111111111111000000000000000011111111111111110000000000000000111111111111111100000000000000001111111111111111000000000000000011111111111111110000000000000001000100000000000100000000000000010001000000000000 n"
b111111111111111100000000000000001111111111111111000000000000000011111111111111110000000000000000111111111111111100000000000000001111111111111111000000000000000011111111111111110000000000000001000100000000000100000000000000010001000000000000 H"
b111111111111111100000000000000001111111111111111000000000000000011111111111111110000000000000000111111111111111100000000000000001111111111111111000000000000000011111111111111110000000000000001000100000000000100000000000000010001000000000000 _"
b1 A"
b1 Q"
1J"
b111111111111111100000000000000001111111111111111000000000000000011111111111111110000000000000000111111111111111100000000000000001111111111111111000000000000000011111111111111110000000000000001000000000000000100000000000000010000000000000000 g"
b111111111111111100000000000000001111111111111111000000000000000011111111111111110000000000000000111111111111111100000000000000001111111111111111000000000000000011111111111111110000000000000001000000000000000100000000000000010000000000000000 {
b111111111111111100000000000000001111111111111111000000000000000011111111111111110000000000000000111111111111111100000000000000001111111111111111000000000000000011111111111111110000000000000001000000000000000100000000000000010000000000000000 4"
b1 t
b1 &"
b11 7
1}
b110 X
b1000000000000000011 Q
b11 H
b11 R
0T
0f
b0 *#
b10 t"
b10 0
b1000000000010 u"
b1000000000010 1
b0 9
b0 ##
b0 1#
b110 j
b1010001000000000011 c
b11 Z
b11 d
1w"
1v"
b11 0#
b1 D"
b1 S"
b1000000000001 U"
b1 T"
b1 *"
b1 )"
b1010001000000000110 -
b1010001000000000110 _
b1000000000000000110 ,
b1000000000000000110 M
b1 ,"
b1 W"
b111 *
b1000000000110 $
b110 #
b10 4#
b111111111111111100000000000000001111111111111111000000000000000011111111111111110000000000000000111111111111111100000000000000001111111111111111000000000000000011111111111111110000000000000000111111111111111100000000000000010000000000000000 r
b111111111111111100000000000000001111111111111111000000000000000011111111111111110000000000000000111111111111111100000000000000001111111111111111000000000000000011111111111111110000000000000000111111111111111100000000000000010000000000000000 i"
b111111111111111100000000000000001111111111111111000000000000000011111111111111110000000000000000111111111111111100000000000000001111111111111111000000000000000011111111111111110000000000000000111111111111111100000000000000010001000000000000 ?"
b111111111111111100000000000000001111111111111111000000000000000011111111111111110000000000000000111111111111111100000000000000001111111111111111000000000000000011111111111111110000000000000000111111111111111100000000000000010001000000000000 p"
1'
#456000
0'
#460000
b100 e
b100 S
0[
0I
b0 B
b0 %#
1e"
1l"
b11 <
b11 (#
1v
1x
b11 ;
1C"
1E"
1p
1="
b11 =
b1000000000011 r"
b11 '#
0h"
0o"
b0 |"
b11 z"
b1010001000000000011 ^
b1000000000000000011 L
b0 8
b10 2#
b100 h
b1000 Y
b100 V
b1000 k
b111 t
b111 &"
b0 g"
b0 {
b0 4"
0}
b1 7"
b1 8"
b1 b"
b1000 ]"
b0 m"
b0 I"
b0 a"
b1 c"
b0 `"
b111 A"
b111 Q"
b0 n"
b0 H"
b0 _"
b0 7
0J"
b11 }"
b100 U
b111 X
b11 9
b11 ##
b11 1#
b11 *#
1f
1T
b100 g
b111 j
b0 *"
b0 )"
b0 D"
b0 S"
b0 U"
b0 T"
b0 0#
0v"
0w"
b1010001000000000111 -
b1010001000000000111 _
b1000000000000000111 ,
b1000000000000000111 M
b1000 *
b1000000000111 $
b111 #
b10 4#
1'
#464000
0'
#468000
b101 h
b101 V
1[
1I
b11 B
b11 %#
0e"
0l"
b0 <
b0 (#
0v
0x
b0 ;
0C"
0E"
0p
0="
b0 =
b11 {"
b11 |"
1o"
1h"
b11 q
b1000000000011 >"
b10 2#
b11 8
b0 L
b1001 k
b0 ^
b100 S
b1001 Y
b100 e
b0 }"
b1 7"
b1 8"
b1 b"
b1000 ]"
b1000 m"
b1000 I"
b1000 a"
b1000 `"
b1 c"
b111111111111111100000000000000001111111111111111000000000000000011111111111111110000000000000000111111111111111100000000000000001111111111111111000000000000000100010000000000100000000000000001000100000000000100000000000000010001000000000000 n"
b111111111111111100000000000000001111111111111111000000000000000011111111111111110000000000000000111111111111111100000000000000001111111111111111000000000000000100010000000000100000000000000001000100000000000100000000000000010001000000000000 H"
b111111111111111100000000000000001111111111111111000000000000000011111111111111110000000000000000111111111111111100000000000000001111111111111111000000000000000100010000000000100000000000000001000100000000000100000000000000010001000000000000 _"
b10 A"
b10 Q"
1J"
b111111111111111100000000000000001111111111111111000000000000000011111111111111110000000000000000111111111111111100000000000000001111111111111111000000000000000100000000000000100000000000000001000000000000000100000000000000010000000000000000 g"
b111111111111111100000000000000001111111111111111000000000000000011111111111111110000000000000000111111111111111100000000000000001111111111111111000000000000000100000000000000100000000000000001000000000000000100000000000000010000000000000000 {
b111111111111111100000000000000001111111111111111000000000000000011111111111111110000000000000000111111111111111100000000000000001111111111111111000000000000000100000000000000100000000000000001000000000000000100000000000000010000000000000000 4"
b10 t
b10 &"
b11 7
1}
b1000 X
b1000000000000000100 Q
b100 H
b100 R
0T
0f
b0 *#
b11 t"
b11 0
b1000000000011 u"
b1000000000011 1
b0 9
b0 ##
b0 1#
b1000 j
b1010001000000000100 c
b100 Z
b100 d
1w"
1v"
b11 0#
b1 D"
b1 S"
b1000000000010 U"
b1 T"
b10 *"
b1 )"
b1010001000000001000 -
b1010001000000001000 _
b1000000000000001000 ,
b1000000000000001000 M
b10 ,"
b10 W"
b1001 *
b1000000001000 $
b1000 #
b10 4#
b111111111111111100000000000000001111111111111111000000000000000011111111111111110000000000000000111111111111111100000000000000001111111111111111000000000000000011111111111111110000000000000001000000000000000100000000000000010000000000000000 r
b111111111111111100000000000000001111111111111111000000000000000011111111111111110000000000000000111111111111111100000000000000001111111111111111000000000000000011111111111111110000000000000001000000000000000100000000000000010000000000000000 i"
b111111111111111100000000000000001111111111111111000000000000000011111111111111110000000000000000111111111111111100000000000000001111111111111111000000000000000011111111111111110000000000000001000100000000000100000000000000010001000000000000 ?"
b111111111111111100000000000000001111111111111111000000000000000011111111111111110000000000000000111111111111111100000000000000001111111111111111000000000000000011111111111111110000000000000001000100000000000100000000000000010001000000000000 p"
1'
#472000
0'
#476000
b101 e
b101 S
0[
0I
b0 B
b0 %#
1e"
1l"
b11 <
b11 (#
1v
1x
b11 ;
1C"
1E"
1p
1="
b11 =
b1000000000100 r"
b11 '#
0h"
0o"
b0 |"
b11 z"
b1010001000000000100 ^
b1000000000000000100 L
b0 8
b10 2#
b101 h
b1010 Y
b101 V
b1010 k
b111 t
b111 &"
b0 g"
b0 {
b0 4"
0}
b1 7"
b1 8"
b1 b"
b1000 ]"
b0 m"
b0 I"
b0 a"
b1 c"
b0 `"
b111 A"
b111 Q"
b0 n"
b0 H"
b0 _"
b0 7
0J"
b11 }"
b101 U
b1001 X
b11 9
b11 ##
b11 1#
b11 *#
1f
1T
b101 g
b1001 j
b0 *"
b0 )"
b0 D"
b0 S"
b0 U"
b0 T"
b0 0#
0v"
0w"
b1010001000000001001 -
b1010001000000001001 _
b1000000000000001001 ,
b1000000000000001001 M
b1010 *
b1000000001001 $
b1001 #
b10 4#
1'
#480000
0'
