BMW_PIFO_SRAM_vPIFO_8/wave.vcd
$date
	Sun Oct 22 23:49:56 2023
$end
$version
	Icarus Verilog
$end
$timescale
	1ps
$end
$scope module TC $end
$var wire 16 ! pop_data_0 [15:0] $end
$var wire 16 " pop_data_1 [15:0] $end
$var wire 16 # pop_data_2 [15:0] $end
$var wire 16 $ pop_data_3 [15:0] $end
$var wire 16 % push_data_0 [15:0] $end
$var wire 16 & push_data_1 [15:0] $end
$var wire 16 ' push_data_2 [15:0] $end
$var wire 16 ( push_data_3 [15:0] $end
$var wire 2 ) task_fifo_full [1:0] $end
$var reg 1 * arst_n $end
$var reg 1 + clk $end
$var reg 2 , pop [1:0] $end
$var reg 2 - push [1:0] $end
$var integer 32 . i [31:0] $end
$var integer 32 / seed [31:0] $end
$scope module u_PIFO_TOP $end
$var wire 20 0 TaskFIFO_push_data_0 [19:0] $end
$var wire 20 1 TaskFIFO_push_data_1 [19:0] $end
$var wire 1 * i_arst_n $end
$var wire 1 + i_clk $end
$var wire 2 2 i_pop [1:0] $end
$var wire 2 3 i_push [1:0] $end
$var wire 16 4 rpu_push_data_0 [15:0] $end
$var wire 16 5 rpu_push_data_1 [15:0] $end
$var wire 2 6 rpu_state_nxt_0 [1:0] $end
$var wire 2 7 rpu_state_nxt_1 [1:0] $end
$var wire 3 8 rpu_treeId_0 [2:0] $end
$var wire 3 9 rpu_treeId_1 [2:0] $end
$var wire 3 : tree_id_dn_0 [2:0] $end
$var wire 2 ; write [1:0] $end
$var wire 2 < we [1:0] $end
$var wire 2 = rpu_push [1:0] $end
$var wire 2 > rpu_pop [1:0] $end
$var wire 2 ? read [1:0] $end
$var wire 2 @ re [1:0] $end
$var wire 2 A push_up [1:0] $end
$var wire 2 B push_dn [1:0] $end
$var wire 2 C push_TaskFIFO [1:0] $end
$var wire 2 D pop_up [1:0] $end
$var wire 2 E pop_dn [1:0] $end
$var wire 2 F pop_TaskFIFO [1:0] $end
$var wire 2 G o_task_fifo_full [1:0] $end
$var wire 2 H o_is_level0_pop [1:0] $end
$var wire 2 I is_level0_pop [1:0] $end
$var wire 2 J TaskFIFO_full [1:0] $end
$var wire 2 K TaskFIFO_empty [1:0] $end
$scope begin genblk2[0] $end
$upscope $end
$scope begin genblk2[1] $end
$upscope $end
$scope begin genblk3[0] $end
$upscope $end
$scope begin genblk3[1] $end
$upscope $end
$scope begin genblk7[0] $end
$scope module tf $end
$var wire 1 + clk $end
$var wire 22 L o_fifo_counter [21:0] $end
$var wire 1 M rd_en $end
$var wire 1 N rst $end
$var wire 1 O wr_en $end
$var wire 20 P buf_out [19:0] $end
$var wire 20 Q buf_in [19:0] $end
$var wire 1 R buf_full $end
$var wire 1 S buf_empty $end
$var reg 1 T buf_empty_last $end
$var reg 20 U buf_rd [19:0] $end
$var reg 22 V fifo_counter [21:0] $end
$var reg 22 W fifo_counter_nxt [21:0] $end
$var reg 1 X rd_en_last $end
$var reg 21 Y rd_ptr [20:0] $end
$var reg 21 Z rd_ptr_nxt [20:0] $end
$var reg 1 [ wr_en_last $end
$var reg 21 \ wr_ptr [20:0] $end
$var reg 21 ] wr_ptr_nxt [20:0] $end
$upscope $end
$upscope $end
$scope begin genblk7[1] $end
$scope module tf $end
$var wire 1 + clk $end
$var wire 22 ^ o_fifo_counter [21:0] $end
$var wire 1 _ rd_en $end
$var wire 1 ` rst $end
$var wire 1 a wr_en $end
$var wire 20 b buf_out [19:0] $end
$var wire 20 c buf_in [19:0] $end
$var wire 1 d buf_full $end
$var wire 1 e buf_empty $end
$var reg 1 f buf_empty_last $end
$var reg 20 g buf_rd [19:0] $end
$var reg 22 h fifo_counter [21:0] $end
$var reg 22 i fifo_counter_nxt [21:0] $end
$var reg 1 j rd_en_last $end
$var reg 21 k rd_ptr [20:0] $end
$var reg 21 l rd_ptr_nxt [20:0] $end
$var reg 1 m wr_en_last $end
$var reg 21 n wr_ptr [20:0] $end
$var reg 21 o wr_ptr_nxt [20:0] $end
$upscope $end
$upscope $end
$scope begin genblk8[0] $end
$upscope $end
$scope begin genblk8[1] $end
$upscope $end
$scope begin loop[0] $end
$upscope $end
$scope begin loop[1] $end
$upscope $end
$scope begin loop1[0] $end
$upscope $end
$scope begin pifo_loop[0] $end
$scope module u_PIFO $end
$var wire 1 * i_arst_n $end
$var wire 1 + i_clk $end
$var wire 1 p i_level $end
$var wire 3 q i_my_addr [2:0] $end
$var wire 1 r i_pop $end
$var wire 16 s i_pop_data [15:0] $end
$var wire 1 t i_push $end
$var wire 16 u i_push_data [15:0] $end
$var wire 256 v i_read_data [255:0] $end
$var wire 3 w i_tree_id [2:0] $end
$var wire 3 x o_child_addr [2:0] $end
$var wire 1 y o_is_level0_pop $end
$var wire 1 z o_read $end
$var wire 3 { o_tree_id [2:0] $end
$var wire 1 | read $end
$var wire 2 } write_hi [1:0] $end
$var wire 2 ~ read_hi [1:0] $end
$var wire 256 !" o_write_data [255:0] $end
$var wire 6 "" o_write_addr [5:0] $end
$var wire 1 #" o_write $end
$var wire 6 $" o_read_addr [5:0] $end
$var wire 16 %" o_push_data [15:0] $end
$var wire 1 &" o_push $end
$var wire 16 '" o_pop_data [15:0] $end
$var wire 1 (" o_pop $end
$var wire 1 )" o_level $end
$var reg 3 *" child_addr [2:0] $end
$var reg 1 +" cur_level $end
$var reg 3 ," cur_tree_id [2:0] $end
$var reg 2 -" fsm [1:0] $end
$var reg 16 ." ipushd_latch [15:0] $end
$var reg 3 /" min_data_port [2:0] $end
$var reg 3 0" min_sub_tree [2:0] $end
$var reg 3 1" my_addr [2:0] $end
$var reg 1 2" pop $end
$var reg 16 3" pop_data [15:0] $end
$var reg 1 4" push $end
$var reg 16 5" push_data [15:0] $end
$var reg 4 6" read_lo [3:0] $end
$var reg 6 7" read_offset [5:0] $end
$var reg 256 8" wdata [255:0] $end
$var reg 1 #" write $end
$var reg 4 9" write_lo [3:0] $end
$var reg 6 :" write_offset [5:0] $end
$scope begin $ivl_for_loop0 $end
$var integer 32 ;" i [31:0] $end
$upscope $end
$scope begin $ivl_for_loop1 $end
$var integer 32 <" i [31:0] $end
$upscope $end
$upscope $end
$upscope $end
$scope begin pifo_loop[1] $end
$scope module u_PIFO $end
$var wire 1 * i_arst_n $end
$var wire 1 + i_clk $end
$var wire 1 =" i_level $end
$var wire 3 >" i_my_addr [2:0] $end
$var wire 1 ?" i_pop $end
$var wire 16 @" i_pop_data [15:0] $end
$var wire 1 A" i_push $end
$var wire 16 B" i_push_data [15:0] $end
$var wire 256 C" i_read_data [255:0] $end
$var wire 3 D" i_tree_id [2:0] $end
$var wire 3 E" o_child_addr [2:0] $end
$var wire 1 F" o_is_level0_pop $end
$var wire 1 G" o_read $end
$var wire 3 H" o_tree_id [2:0] $end
$var wire 1 I" read $end
$var wire 2 J" write_hi [1:0] $end
$var wire 2 K" read_hi [1:0] $end
$var wire 256 L" o_write_data [255:0] $end
$var wire 6 M" o_write_addr [5:0] $end
$var wire 1 N" o_write $end
$var wire 6 O" o_read_addr [5:0] $end
$var wire 16 P" o_push_data [15:0] $end
$var wire 1 Q" o_push $end
$var wire 16 R" o_pop_data [15:0] $end
$var wire 1 S" o_pop $end
$var wire 1 T" o_level $end
$var reg 3 U" child_addr [2:0] $end
$var reg 1 V" cur_level $end
$var reg 3 W" cur_tree_id [2:0] $end
$var reg 2 X" fsm [1:0] $end
$var reg 16 Y" ipushd_latch [15:0] $end
$var reg 3 Z" min_data_port [2:0] $end
$var reg 3 [" min_sub_tree [2:0] $end
$var reg 3 \" my_addr [2:0] $end
$var reg 1 ]" pop $end
$var reg 16 ^" pop_data [15:0] $end
$var reg 1 _" push $end
$var reg 16 `" push_data [15:0] $end
$var reg 4 a" read_lo [3:0] $end
$var reg 6 b" read_offset [5:0] $end
$var reg 256 c" wdata [255:0] $end
$var reg 1 N" write $end
$var reg 4 d" write_lo [3:0] $end
$var reg 6 e" write_offset [5:0] $end
$scope begin $ivl_for_loop0 $end
$var integer 32 f" i [31:0] $end
$upscope $end
$scope begin $ivl_for_loop1 $end
$var integer 32 g" i [31:0] $end
$upscope $end
$upscope $end
$upscope $end
$scope begin sram_inst[0] $end
$scope module u_INFER_SDPRAM $end
$var wire 1 * i_arst_n $end
$var wire 1 + i_clk $end
$var wire 6 h" i_raddr [5:0] $end
$var wire 1 i" i_re $end
$var wire 6 j" i_waddr [5:0] $end
$var wire 256 k" i_wdata [255:0] $end
$var wire 1 l" i_we $end
$var reg 256 m" o_rdata [255:0] $end
$var integer 32 n" i [31:0] $end
$scope begin genblk3 $end
$upscope $end
$upscope $end
$upscope $end
$scope begin sram_inst[1] $end
$scope module u_INFER_SDPRAM $end
$var wire 1 * i_arst_n $end
$var wire 1 + i_clk $end
$var wire 6 o" i_raddr [5:0] $end
$var wire 1 p" i_re $end
$var wire 6 q" i_waddr [5:0] $end
$var wire 256 r" i_wdata [255:0] $end
$var wire 1 s" i_we $end
$var reg 256 t" o_rdata [255:0] $end
$var integer 32 u" i [31:0] $end
$scope begin genblk3 $end
$upscope $end
$upscope $end
$upscope $end
$scope module td $end
$var wire 16 v" TaskHead_PushData_1 [15:0] $end
$var wire 2 w" i_TaskFIFO_empty [1:0] $end
$var wire 1 * i_arst_n $end
$var wire 1 + i_clk $end
$var wire 16 x" rpu_PushData_0 [15:0] $end
$var wire 16 y" rpu_PushData_1 [15:0] $end
$var wire 1 z" rpu_level_0 $end
$var wire 1 {" rpu_level_1 $end
$var wire 2 |" rpu_state_0 [1:0] $end
$var wire 2 }" rpu_state_1 [1:0] $end
$var wire 2 ~" rpu_ready_nxt [1:0] $end
$var wire 2 !# rpu_push_nxt [1:0] $end
$var wire 2 "# rpu_push_new_nxt [1:0] $end
$var wire 2 ## rpu_push_inherit_nxt [1:0] $end
$var wire 2 $# rpu_pop_nxt [1:0] $end
$var wire 2 %# rpu_pop_new_nxt [1:0] $end
$var wire 2 &# rpu_pop_inherit_nxt [1:0] $end
$var wire 2 '# o_rpu_push [1:0] $end
$var wire 2 (# o_rpu_pop [1:0] $end
$var wire 2 )# o_pop_TaskFIFO [1:0] $end
$var wire 2 *# TaskHead_valid [1:0] $end
$var wire 2 +# TaskHead_type [1:0] $end
$var wire 2 ,# TaskHead_after_valid [1:0] $end
$var reg 2 -# i_TaskFIFO_empty_last [1:0] $end
$var reg 2 .# pop_TaskFIFO_last [1:0] $end
$var reg 2 /# rpu_pop [1:0] $end
$var reg 2 0# rpu_pop_inherit [1:0] $end
$var reg 2 1# rpu_pop_inherit_pre [1:0] $end
$var reg 2 2# rpu_pop_new [1:0] $end
$var reg 2 3# rpu_push [1:0] $end
$var reg 2 4# rpu_push_inherit [1:0] $end
$var reg 2 5# rpu_push_new [1:0] $end
$scope begin genblk1[0] $end
$upscope $end
$scope begin genblk1[1] $end
$upscope $end
$scope begin genblk10[0] $end
$upscope $end
$scope begin genblk10[1] $end
$upscope $end
$scope begin genblk11[0] $end
$upscope $end
$scope begin genblk11[1] $end
$upscope $end
$scope begin genblk12[0] $end
$upscope $end
$scope begin genblk12[1] $end
$upscope $end
$scope begin genblk13[0] $end
$upscope $end
$scope begin genblk13[1] $end
$upscope $end
$scope begin genblk15[0] $end
$upscope $end
$scope begin genblk15[1] $end
$upscope $end
$scope begin genblk16[0] $end
$upscope $end
$scope begin genblk16[1] $end
$upscope $end
$scope begin genblk2[0] $end
$upscope $end
$scope begin genblk2[1] $end
$upscope $end
$scope begin genblk3[1] $end
$upscope $end
$scope begin genblk4[0] $end
$upscope $end
$scope begin genblk4[1] $end
$upscope $end
$scope begin genblk5[0] $end
$upscope $end
$scope begin genblk5[1] $end
$upscope $end
$scope begin genblk6[1] $end
$upscope $end
$scope begin genblk7[0] $end
$upscope $end
$scope begin genblk7[1] $end
$upscope $end
$scope begin genblk8[0] $end
$upscope $end
$scope begin genblk8[1] $end
$upscope $end
$scope begin genblk9[0] $end
$upscope $end
$scope begin genblk9[1] $end
$upscope $end
$scope begin $ivl_for_loop2 $end
$var integer 32 6# i [31:0] $end
$upscope $end
$upscope $end
$upscope $end
$scope begin $ivl_for_loop3 $end
$var integer 32 7# j [31:0] $end
$upscope $end
$scope begin $ivl_for_loop4 $end
$var integer 32 8# j [31:0] $end
$upscope $end
$scope begin $ivl_for_loop5 $end
$var integer 32 9# j [31:0] $end
$upscope $end
$scope begin $ivl_for_loop6 $end
$var integer 32 :# j [31:0] $end
$upscope $end
$scope begin $ivl_for_loop7 $end
$var integer 32 ;# j [31:0] $end
$upscope $end
$upscope $end
$enddefinitions $end
#0
$dumpvars
bx ;#
bx :#
bx 9#
bx 8#
b10 7#
b10 6#
bx 5#
b0 4#
b0 3#
bx 2#
b0 1#
b0 0#
b0 /#
bx .#
bx -#
b0 ,#
b0 +#
b0 *#
b0 )#
bx (#
bx '#
b0 &#
b0 %#
b0 $#
b0 ##
b0 "#
b0 !#
b11 ~"
b0 }"
b0 |"
0{"
0z"
bx y"
bx x"
b11 w"
b0 v"
b1000000 u"
bx t"
0s"
b0 r"
b0 q"
xp"
bx o"
b1000000 n"
bx m"
0l"
b0 k"
b0 j"
xi"
bx h"
b1 g"
b1 f"
b0 e"
b0 d"
b0 c"
bx b"
b0 a"
b0 `"
0_"
b1111111111111111 ^"
0]"
b0 \"
bx ["
bx Z"
b0 Y"
b0 X"
b0 W"
0V"
b111 U"
1T"
0S"
b1111111111111111 R"
0Q"
b0 P"
bx O"
0N"
b0 M"
b0 L"
bx K"
b0 J"
xI"
b0 H"
xG"
0F"
b111 E"
bx D"
bx C"
bx B"
xA"
b1111111111111111 @"
x?"
b0 >"
0="
b1 <"
b1 ;"
b0 :"
b0 9"
b0 8"
bx 7"
b0 6"
b0 5"
04"
b1111111111111111 3"
02"
b0 1"
bx 0"
bx /"
b0 ."
b0 -"
b0 ,"
0+"
b111 *"
1)"
0("
b1111111111111111 '"
0&"
b0 %"
bx $"
0#"
b0 ""
b0 !"
bx ~
b0 }
x|
b0 {
xz
0y
b111 x
bx w
bx v
bx u
xt
b1111111111111111 s
xr
b0 q
0p
b0 o
b0 n
xm
b0 l
b0 k
xj
b0 i
b0 h
b0 g
xf
1e
0d
b0 c
b0 b
0a
1`
0_
b0 ^
b0 ]
b0 \
x[
b0 Z
b0 Y
xX
b0 W
b0 V
b0 U
xT
1S
0R
b0 Q
b0 P
0O
1N
0M
b0 L
b11 K
b0 J
b0 I
b0 H
b0 G
b0 F
b0 E
bx D
b0 C
b0 B
bx A
bx @
bx ?
bx >
bx =
b0 <
b0 ;
b0 :
bx 9
bx 8
bz 7
bz 6
bx 5
bx 4
b0 3
b0 2
b0 1
b0 0
b1 /
b110010 .
b0 -
b0 ,
0+
0*
b0 )
bx (
bx '
bx &
bx %
bx $
bx #
b1111111111111111 "
b1111111111111111 !
$end
#4000
0i"
0p"
b0 @
0z
0|
b0 ?
0G"
0I"
b0 h"
b0 $"
b0 7"
0t
0A"
0r
0?"
b0 u
b0 ~
b1111111111111111 B"
b1 ;"
b1 <"
b0 o"
b0 O"
b0 b"
b1 f"
b0 K"
b0 A
b0 D
b0 w
b0 D"
1T
0[
0X
1f
0m
0j
b11 -#
b0 .#
b0 8
b0 x"
b0 4
b0 9
b0 y"
b0 5
b0 =
b0 '#
b0 5#
b0 >
b0 (#
b0 2#
1+
#8000
0+
#12000
1+
#16000
0+
#20000
1+
#24000
0+
#28000
1+
#32000
0+
#36000
1+
#40000
0+
#44000
1+
#48000
0+
#52000
1+
#56000
0+
#60000
1+
#64000
0+
#68000
1+
#72000
0+
#76000
1+
#80000
0+
#84000
1+
#88000
0+
#92000
1+
#96000
0+
#100000
1+
#104000
0+
#108000
1+
#112000
0+
#116000
1+
#120000
0+
#124000
1+
#128000
0+
#132000
1+
#136000
0+
#140000
1+
#144000
0+
#148000
1+
#152000
0+
#156000
1+
#160000
0+
#164000
1+
#168000
0+
#172000
1+
#176000
0+
#180000
1+
#184000
0+
#188000
1+
#192000
0+
#196000
1+
#200000
0+
#204000
1+
#208000
0+
#212000
1+
#216000
0+
#220000
1+
#224000
0+
#228000
1+
#232000
0+
#236000
1+
#240000
0+
#244000
1+
#248000
0+
#252000
1+
#256000
0+
#260000
1+
#264000
0+
#268000
1+
#272000
0+
#276000
1+
#280000
0+
#284000
1+
#288000
0+
#292000
1+
#296000
0+
#300000
1+
#304000
0+
#308000
1+
#312000
0+
#316000
1+
#320000
0+
#324000
1+
#328000
0+
#332000
1+
#336000
0+
#340000
1+
#344000
0+
#348000
1+
#352000
0+
#356000
1+
#360000
0+
#364000
1+
#368000
0+
#372000
1+
#376000
0+
#380000
1+
#384000
0+
#388000
1+
#392000
0+
#396000
1+
#400000
b1 ;"
b1 <"
b1 f"
b1 g"
b10 6#
0+
b0 .
0N
0`
1*
#404000
bx U
bx g
b1 o
b1 i
b1 ]
b1 ;"
b1 <"
b1 f"
b1 g"
b1 W
1a
1O
b11 C
b10010001000000000000 1
b10010001000000000000 c
b10000000000000000000 0
b10000000000000000000 Q
b1 .
b1000000000000 &
b0 %
b11 -
b11 3
b10 8#
1+
#408000
0+
#412000
b1 l
b1 Z
1M
1_
b11 F
b11 )#
b1 ;"
b1 <"
b1 f"
b1 g"
b1 W
b10 ]
b1 i
b10 o
0S
b1 L
b1 V
b1 \
1m
1[
b0 K
b0 w"
0e
b1 ^
b1 h
b1 n
b10010001000000000001 1
b10010001000000000001 c
b10000000000000000001 0
b10000000000000000001 Q
b10 .
b1000000000001 &
b1 %
b10 8#
1+
#416000
0+
#420000
b11 !#
b11 "#
b1 W
b1 i
b0 $#
1M
1_
b11 F
b11 )#
b0 %#
b1000000000000 v"
b11 +#
b0 ,#
b11 *#
b10000000000000000000 P
b10010001000000000000 b
b10 l
b1 ;"
b1 <"
b1 f"
b1 g"
b11 ]
b10 Z
b11 o
b1 Y
b10 \
b10000000000000000000 U
0T
1X
0f
1j
b0 -#
b11 .#
b1 k
b10 n
b10010001000000000000 g
b10010001000000000010 1
b10010001000000000010 c
b10000000000000000010 0
b10000000000000000010 Q
b11 .
b1000000000010 &
b10 %
b10 8#
1+
#424000
0+
#428000
b10 i
b10 W
0_
0M
b0 F
b0 )#
1i"
1p"
b11 ,#
b11 @
1z
1|
b11 ?
1G"
1I"
b1000000000001 v"
1t
1A"
b1000 o"
b1000 O"
b1000 b"
b1000 a"
b0 "#
b11 ~"
b11 A
b1000000000000 B"
b1 D"
b11 ##
b10000000000000000001 P
b10010001000000000001 b
b1 ;"
b1 <"
b1 f"
b1 g"
b100 ]
b10 Z
b100 o
b10 l
b10 6#
b10000000000000000001 U
b10 Y
b11 \
b11 =
b11 '#
b11 5#
b1 9
b1000000000000 y"
b1000000000000 5
b10010001000000000001 g
b10 k
b11 n
b11 3#
b1 |"
b1 }"
b10010001000000000011 1
b10010001000000000011 c
b10000000000000000011 0
b10000000000000000011 Q
b100 .
b1000000000011 &
b11 %
b10 8#
1+
#432000
0+
#436000
b11 l
b11 Z
1_
1M
b11 F
b11 )#
0i"
0p"
b0 @
b0 ,#
0z
0|
b0 ?
0G"
0I"
0t
0A"
b0 A
b11 !#
b11 "#
1s"
1l"
b1 u
b1000000000001 B"
b10 6#
b11 <
b0 P
b101 o
b0 b
b10 W
b101 ]
b10 i
b0 ##
b1 ;"
b1 <"
b1 f"
b1000 a"
b1000 q"
b1000 M"
b1000 e"
b1000 d"
b1 g"
b111111111111111100000000000000001111111111111111000000000000000011111111111111110000000000000000111111111111111100000000000000001111111111111111000000000000000011111111111111110000000000000000111111111111111100000000000000010001000000000000 r"
b111111111111111100000000000000001111111111111111000000000000000011111111111111110000000000000000111111111111111100000000000000001111111111111111000000000000000011111111111111110000000000000000111111111111111100000000000000010001000000000000 L"
b111111111111111100000000000000001111111111111111000000000000000011111111111111110000000000000000111111111111111100000000000000001111111111111111000000000000000011111111111111110000000000000000111111111111111100000000000000010001000000000000 c"
b0 E"
b0 U"
1N"
b111111111111111100000000000000001111111111111111000000000000000011111111111111110000000000000000111111111111111100000000000000001111111111111111000000000000000011111111111111110000000000000000111111111111111100000000000000010000000000000000 k"
b111111111111111100000000000000001111111111111111000000000000000011111111111111110000000000000000111111111111111100000000000000001111111111111111000000000000000011111111111111110000000000000000111111111111111100000000000000010000000000000000 !"
b111111111111111100000000000000001111111111111111000000000000000011111111111111110000000000000000111111111111111100000000000000001111111111111111000000000000000011111111111111110000000000000000111111111111111100000000000000010000000000000000 8"
b0 x
b0 *"
b11 ;
1#"
b100 \
b10000000000000000010 U
b10 L
b10 V
0X
0j
b0 .#
b1 x"
b1 4
b1000000000001 y"
b1000000000001 5
b0 =
b0 '#
b0 5#
b100 n
b10010001000000000010 g
b10 ^
b10 h
1{"
1z"
b11 4#
b1 H"
b1 W"
b1000000000000 Y"
b1 X"
b1 -"
b10010001000000000100 1
b10010001000000000100 c
b10000000000000000100 0
b10000000000000000100 Q
b0 /"
b0 0"
b0 Z"
b0 ["
b101 .
b1000000000100 &
b100 %
b10 8#
b111111111111111100000000000000001111111111111111000000000000000011111111111111110000000000000000111111111111111100000000000000001111111111111111000000000000000011111111111111110000000000000000111111111111111100000000000000001111111111111111 v
b111111111111111100000000000000001111111111111111000000000000000011111111111111110000000000000000111111111111111100000000000000001111111111111111000000000000000011111111111111110000000000000000111111111111111100000000000000001111111111111111 m"
b111111111111111100000000000000001111111111111111000000000000000011111111111111110000000000000000111111111111111100000000000000001111111111111111000000000000000011111111111111110000000000000000111111111111111100000000000000001111111111111111 C"
b111111111111111100000000000000001111111111111111000000000000000011111111111111110000000000000000111111111111111100000000000000001111111111111111000000000000000011111111111111110000000000000000111111111111111100000000000000001111111111111111 t"
1+
#440000
0+
#444000
b11 i
b11 W
0_
0M
b0 F
b0 )#
1i"
1p"
b11 @
b11 ,#
1z
1|
b11 ?
1G"
1I"
1t
1A"
b11 A
b1000000000010 v"
b11 +#
0l"
0s"
b0 "#
b11 ~"
b10010001000000000010 b
b10000000000000000010 P
b0 <
b10 6#
b11 l
b110 ]
b11 Z
b110 o
b111 x
b111 *"
b0 k"
b0 !"
b0 8"
0#"
b1 ;"
b1 <"
b1 f"
b1000 a"
b0 q"
b0 M"
b0 e"
b1 g"
b0 d"
b111 E"
b111 U"
b0 r"
b0 L"
b0 c"
b0 ;
0N"
b11 ##
b11 Y
b101 \
b11 =
b11 '#
b11 5#
b11 .#
1j
1X
b11 k
b101 n
b0 -"
b0 H"
b0 W"
b0 Y"
b0 X"
b0 4#
0z"
0{"
b10010001000000000101 1
b10010001000000000101 c
b10000000000000000101 0
b10000000000000000101 Q
b110 .
b1000000000101 &
b101 %
b10 8#
1+
#448000
0+
#452000
b100 l
b100 Z
1_
1M
b11 F
b11 )#
0i"
0p"
b0 @
b0 ,#
0z
0|
b0 ?
0G"
0I"
0t
0A"
b0 A
b11 !#
b11 "#
1s"
1l"
b10 u
b1000000000010 B"
b10 6#
b11 <
b0 P
b111 o
b0 b
b11 W
b111 ]
b11 i
b0 ##
b1 ;"
b1 <"
b1 f"
b1000 a"
b1000 q"
b1000 M"
b1000 e"
b1000 d"
b1 g"
b111111111111111100000000000000001111111111111111000000000000000011111111111111110000000000000000111111111111111100000000000000001111111111111111000000000000000011111111111111110000000000000001000100000000000100000000000000010001000000000000 r"
b111111111111111100000000000000001111111111111111000000000000000011111111111111110000000000000000111111111111111100000000000000001111111111111111000000000000000011111111111111110000000000000001000100000000000100000000000000010001000000000000 L"
b111111111111111100000000000000001111111111111111000000000000000011111111111111110000000000000000111111111111111100000000000000001111111111111111000000000000000011111111111111110000000000000001000100000000000100000000000000010001000000000000 c"
b1 E"
b1 U"
1N"
b111111111111111100000000000000001111111111111111000000000000000011111111111111110000000000000000111111111111111100000000000000001111111111111111000000000000000011111111111111110000000000000001000000000000000100000000000000010000000000000000 k"
b111111111111111100000000000000001111111111111111000000000000000011111111111111110000000000000000111111111111111100000000000000001111111111111111000000000000000011111111111111110000000000000001000000000000000100000000000000010000000000000000 !"
b111111111111111100000000000000001111111111111111000000000000000011111111111111110000000000000000111111111111111100000000000000001111111111111111000000000000000011111111111111110000000000000001000000000000000100000000000000010000000000000000 8"
b1 x
b1 *"
b11 ;
1#"
b110 \
b10000000000000000011 U
b11 L
b11 V
0X
0j
b0 .#
b10 x"
b10 4
b1000000000010 y"
b1000000000010 5
b0 =
b0 '#
b0 5#
b110 n
b10010001000000000011 g
b11 ^
b11 h
1{"
1z"
b11 4#
b1 H"
b1 W"
b1000000000001 Y"
b1 X"
b1 ."
b1 -"
b10010001000000000110 1
b10010001000000000110 c
b10000000000000000110 0
b10000000000000000110 Q
b1 0"
b1 ["
b111 .
b1000000000110 &
b110 %
b10 8#
b111111111111111100000000000000001111111111111111000000000000000011111111111111110000000000000000111111111111111100000000000000001111111111111111000000000000000011111111111111110000000000000000111111111111111100000000000000010000000000000000 v
b111111111111111100000000000000001111111111111111000000000000000011111111111111110000000000000000111111111111111100000000000000001111111111111111000000000000000011111111111111110000000000000000111111111111111100000000000000010000000000000000 m"
b111111111111111100000000000000001111111111111111000000000000000011111111111111110000000000000000111111111111111100000000000000001111111111111111000000000000000011111111111111110000000000000000111111111111111100000000000000010001000000000000 C"
b111111111111111100000000000000001111111111111111000000000000000011111111111111110000000000000000111111111111111100000000000000001111111111111111000000000000000011111111111111110000000000000000111111111111111100000000000000010001000000000000 t"
1+
#456000
0+
#460000
b100 i
b100 W
0_
0M
b0 F
b0 )#
1i"
1p"
b11 @
b11 ,#
1z
1|
b11 ?
1G"
1I"
1t
1A"
b11 A
b1000000000011 v"
b11 +#
0l"
0s"
b0 "#
b11 ~"
b10010001000000000011 b
b10000000000000000011 P
b0 <
b10 6#
b100 l
b1000 ]
b100 Z
b1000 o
b111 x
b111 *"
b0 k"
b0 !"
b0 8"
0#"
b1 ;"
b1 <"
b1 f"
b1000 a"
b0 q"
b0 M"
b0 e"
b1 g"
b0 d"
b111 E"
b111 U"
b0 r"
b0 L"
b0 c"
b0 ;
0N"
b11 ##
b100 Y
b111 \
b11 =
b11 '#
b11 5#
b11 .#
1j
1X
b100 k
b111 n
b0 ."
b0 -"
b0 H"
b0 W"
b0 Y"
b0 X"
b0 4#
0z"
0{"
b10010001000000000111 1
b10010001000000000111 c
b10000000000000000111 0
b10000000000000000111 Q
b1000 .
b1000000000111 &
b111 %
b10 8#
1+
#464000
0+
#468000
b101 l
b101 Z
1_
1M
b11 F
b11 )#
0i"
0p"
b0 @
b0 ,#
0z
0|
b0 ?
0G"
0I"
0t
0A"
b0 A
b11 !#
b11 "#
1s"
1l"
b11 u
b1000000000011 B"
b10 6#
b11 <
b0 P
b1001 o
b0 b
b100 W
b1001 ]
b100 i
b0 ##
b1 ;"
b1 <"
b1 f"
b1000 a"
b1000 q"
b1000 M"
b1000 e"
b1000 d"
b1 g"
b111111111111111100000000000000001111111111111111000000000000000011111111111111110000000000000000111111111111111100000000000000001111111111111111000000000000000100010000000000100000000000000001000100000000000100000000000000010001000000000000 r"
b111111111111111100000000000000001111111111111111000000000000000011111111111111110000000000000000111111111111111100000000000000001111111111111111000000000000000100010000000000100000000000000001000100000000000100000000000000010001000000000000 L"
b111111111111111100000000000000001111111111111111000000000000000011111111111111110000000000000000111111111111111100000000000000001111111111111111000000000000000100010000000000100000000000000001000100000000000100000000000000010001000000000000 c"
b10 E"
b10 U"
1N"
b111111111111111100000000000000001111111111111111000000000000000011111111111111110000000000000000111111111111111100000000000000001111111111111111000000000000000100000000000000100000000000000001000000000000000100000000000000010000000000000000 k"
b111111111111111100000000000000001111111111111111000000000000000011111111111111110000000000000000111111111111111100000000000000001111111111111111000000000000000100000000000000100000000000000001000000000000000100000000000000010000000000000000 !"
b111111111111111100000000000000001111111111111111000000000000000011111111111111110000000000000000111111111111111100000000000000001111111111111111000000000000000100000000000000100000000000000001000000000000000100000000000000010000000000000000 8"
b10 x
b10 *"
b11 ;
1#"
b1000 \
b10000000000000000100 U
b100 L
b100 V
0X
0j
b0 .#
b11 x"
b11 4
b1000000000011 y"
b1000000000011 5
b0 =
b0 '#
b0 5#
b1000 n
b10010001000000000100 g
b100 ^
b100 h
1{"
1z"
b11 4#
b1 H"
b1 W"
b1000000000010 Y"
b1 X"
b10 ."
b1 -"
b10010001000000001000 1
b10010001000000001000 c
b10000000000000001000 0
b10000000000000001000 Q
b10 0"
b10 ["
b1001 .
b1000000001000 &
b1000 %
b10 8#
b111111111111111100000000000000001111111111111111000000000000000011111111111111110000000000000000111111111111111100000000000000001111111111111111000000000000000011111111111111110000000000000001000000000000000100000000000000010000000000000000 v
b111111111111111100000000000000001111111111111111000000000000000011111111111111110000000000000000111111111111111100000000000000001111111111111111000000000000000011111111111111110000000000000001000000000000000100000000000000010000000000000000 m"
b111111111111111100000000000000001111111111111111000000000000000011111111111111110000000000000000111111111111111100000000000000001111111111111111000000000000000011111111111111110000000000000001000100000000000100000000000000010001000000000000 C"
b111111111111111100000000000000001111111111111111000000000000000011111111111111110000000000000000111111111111111100000000000000001111111111111111000000000000000011111111111111110000000000000001000100000000000100000000000000010001000000000000 t"
1+
#472000
0+
