BMW_PIFO_SRAM_v2/wave.vcd
$date
	Sun Jul 02 20:17:43 2023
$end
$version
	Icarus Verilog
$end
$timescale
	10ps
$end
$scope module TC $end
$var wire 8 ! pop_data [7:0] $end
$var reg 1 " arst_n $end
$var reg 1 # clk $end
$var reg 1 $ pop $end
$var reg 1 % push $end
$var reg 8 & push_data [7:0] $end
$var reg 2 ' tree_id [1:0] $end
$var integer 32 ( i [31:0] $end
$var integer 32 ) seed [31:0] $end
$scope module u_PIFO_TOP $end
$var wire 1 " i_arst_n $end
$var wire 1 # i_clk $end
$var wire 1 $ i_pop $end
$var wire 1 % i_push $end
$var wire 8 * i_push_data [7:0] $end
$var wire 2 + i_tree_id [1:0] $end
$var wire 8 , o_pop_data [7:0] $end
$var wire 4 - write [3:0] $end
$var wire 4 . we [3:0] $end
$var wire 3 / test [2:0] $end
$var wire 1 0 ret $end
$var wire 4 1 read [3:0] $end
$var wire 4 2 re [3:0] $end
$var wire 4 3 push_up [3:0] $end
$var wire 4 4 pop_up [3:0] $end
$scope function get_child_id $end
$var reg 2 5 child_id [1:0] $end
$var reg 2 6 my_id [1:0] $end
$upscope $end
$scope function get_rpu_id $end
$var reg 2 7 level [1:0] $end
$var reg 2 8 ret [1:0] $end
$var reg 2 9 tree_id [1:0] $end
$upscope $end
$scope begin loop[0] $end
$upscope $end
$scope begin loop[1] $end
$upscope $end
$scope begin loop[2] $end
$upscope $end
$scope begin loop[3] $end
$upscope $end
$scope begin loop1[0] $end
$upscope $end
$scope begin loop1[1] $end
$upscope $end
$scope begin loop1[2] $end
$upscope $end
$scope begin pifo_loop[0] $end
$scope module u_PIFO $end
$var wire 1 " i_arst_n $end
$var wire 1 # i_clk $end
$var wire 2 : i_level [1:0] $end
$var wire 3 ; i_my_addr [2:0] $end
$var wire 1 < i_pop $end
$var wire 8 = i_pop_data [7:0] $end
$var wire 1 > i_push $end
$var wire 8 ? i_push_data [7:0] $end
$var wire 32 @ i_read_data [31:0] $end
$var wire 2 A i_tree_id [1:0] $end
$var wire 3 B o_child_addr [2:0] $end
$var wire 1 C o_read $end
$var wire 2 D o_tree_id [1:0] $end
$var wire 1 E read $end
$var wire 2 F read_hi [-1:0] $end
$var wire 2 G write_hi [-1:0] $end
$var wire 32 H o_write_data [31:0] $end
$var wire 4 I o_write_addr [3:0] $end
$var wire 1 J o_write $end
$var wire 4 K o_read_addr [3:0] $end
$var wire 8 L o_push_data [7:0] $end
$var wire 1 M o_push $end
$var wire 8 N o_pop_data [7:0] $end
$var wire 1 O o_pop $end
$var wire 2 P o_level [1:0] $end
$var reg 3 Q child_addr [2:0] $end
$var reg 2 R cur_level [1:0] $end
$var reg 2 S cur_tree_id [1:0] $end
$var reg 2 T fsm [1:0] $end
$var reg 8 U ipushd_latch [7:0] $end
$var reg 1 V min_data_port $end
$var reg 1 W min_sub_tree $end
$var reg 3 X my_addr [2:0] $end
$var reg 1 Y pop $end
$var reg 8 Z pop_data [7:0] $end
$var reg 1 [ push $end
$var reg 8 \ push_data [7:0] $end
$var reg 4 ] read_lo [3:0] $end
$var reg 4 ^ read_offset [3:0] $end
$var reg 32 _ wdata [31:0] $end
$var reg 1 J write $end
$var reg 4 ` write_lo [3:0] $end
$var reg 4 a write_offset [3:0] $end
$scope function get_offset $end
$var reg 2 b hi [-1:0] $end
$var reg 2 c level [1:0] $end
$var reg 4 d lo [3:0] $end
$var reg 4 e ret [3:0] $end
$var reg 2 f tree_id [1:0] $end
$scope begin $ivl_for_loop0 $end
$var integer 32 g i [31:0] $end
$upscope $end
$scope begin $ivl_for_loop1 $end
$var integer 32 h i [31:0] $end
$upscope $end
$upscope $end
$scope begin $ivl_for_loop2 $end
$var integer 32 i i [31:0] $end
$upscope $end
$scope begin $ivl_for_loop3 $end
$var integer 32 j i [31:0] $end
$upscope $end
$upscope $end
$upscope $end
$scope begin pifo_loop[1] $end
$scope module u_PIFO $end
$var wire 1 " i_arst_n $end
$var wire 1 # i_clk $end
$var wire 2 k i_level [1:0] $end
$var wire 3 l i_my_addr [2:0] $end
$var wire 1 m i_pop $end
$var wire 8 n i_pop_data [7:0] $end
$var wire 1 o i_push $end
$var wire 8 p i_push_data [7:0] $end
$var wire 32 q i_read_data [31:0] $end
$var wire 2 r i_tree_id [1:0] $end
$var wire 3 s o_child_addr [2:0] $end
$var wire 1 t o_read $end
$var wire 2 u o_tree_id [1:0] $end
$var wire 1 v read $end
$var wire 2 w read_hi [-1:0] $end
$var wire 2 x write_hi [-1:0] $end
$var wire 32 y o_write_data [31:0] $end
$var wire 4 z o_write_addr [3:0] $end
$var wire 1 { o_write $end
$var wire 4 | o_read_addr [3:0] $end
$var wire 8 } o_push_data [7:0] $end
$var wire 1 ~ o_push $end
$var wire 8 !" o_pop_data [7:0] $end
$var wire 1 "" o_pop $end
$var wire 2 #" o_level [1:0] $end
$var reg 3 $" child_addr [2:0] $end
$var reg 2 %" cur_level [1:0] $end
$var reg 2 &" cur_tree_id [1:0] $end
$var reg 2 '" fsm [1:0] $end
$var reg 8 (" ipushd_latch [7:0] $end
$var reg 1 )" min_data_port $end
$var reg 1 *" min_sub_tree $end
$var reg 3 +" my_addr [2:0] $end
$var reg 1 ," pop $end
$var reg 8 -" pop_data [7:0] $end
$var reg 1 ." push $end
$var reg 8 /" push_data [7:0] $end
$var reg 4 0" read_lo [3:0] $end
$var reg 4 1" read_offset [3:0] $end
$var reg 32 2" wdata [31:0] $end
$var reg 1 { write $end
$var reg 4 3" write_lo [3:0] $end
$var reg 4 4" write_offset [3:0] $end
$scope function get_offset $end
$var reg 2 5" hi [-1:0] $end
$var reg 2 6" level [1:0] $end
$var reg 4 7" lo [3:0] $end
$var reg 4 8" ret [3:0] $end
$var reg 2 9" tree_id [1:0] $end
$scope begin $ivl_for_loop0 $end
$var integer 32 :" i [31:0] $end
$upscope $end
$scope begin $ivl_for_loop1 $end
$var integer 32 ;" i [31:0] $end
$upscope $end
$upscope $end
$scope begin $ivl_for_loop2 $end
$var integer 32 <" i [31:0] $end
$upscope $end
$scope begin $ivl_for_loop3 $end
$var integer 32 =" i [31:0] $end
$upscope $end
$upscope $end
$upscope $end
$scope begin pifo_loop[2] $end
$scope module u_PIFO $end
$var wire 1 " i_arst_n $end
$var wire 1 # i_clk $end
$var wire 2 >" i_level [1:0] $end
$var wire 3 ?" i_my_addr [2:0] $end
$var wire 1 @" i_pop $end
$var wire 8 A" i_pop_data [7:0] $end
$var wire 1 B" i_push $end
$var wire 8 C" i_push_data [7:0] $end
$var wire 32 D" i_read_data [31:0] $end
$var wire 2 E" i_tree_id [1:0] $end
$var wire 3 F" o_child_addr [2:0] $end
$var wire 1 G" o_read $end
$var wire 2 H" o_tree_id [1:0] $end
$var wire 1 I" read $end
$var wire 2 J" read_hi [-1:0] $end
$var wire 2 K" write_hi [-1:0] $end
$var wire 32 L" o_write_data [31:0] $end
$var wire 4 M" o_write_addr [3:0] $end
$var wire 1 N" o_write $end
$var wire 4 O" o_read_addr [3:0] $end
$var wire 8 P" o_push_data [7:0] $end
$var wire 1 Q" o_push $end
$var wire 8 R" o_pop_data [7:0] $end
$var wire 1 S" o_pop $end
$var wire 2 T" o_level [1:0] $end
$var reg 3 U" child_addr [2:0] $end
$var reg 2 V" cur_level [1:0] $end
$var reg 2 W" cur_tree_id [1:0] $end
$var reg 2 X" fsm [1:0] $end
$var reg 8 Y" ipushd_latch [7:0] $end
$var reg 1 Z" min_data_port $end
$var reg 1 [" min_sub_tree $end
$var reg 3 \" my_addr [2:0] $end
$var reg 1 ]" pop $end
$var reg 8 ^" pop_data [7:0] $end
$var reg 1 _" push $end
$var reg 8 `" push_data [7:0] $end
$var reg 4 a" read_lo [3:0] $end
$var reg 4 b" read_offset [3:0] $end
$var reg 32 c" wdata [31:0] $end
$var reg 1 N" write $end
$var reg 4 d" write_lo [3:0] $end
$var reg 4 e" write_offset [3:0] $end
$scope function get_offset $end
$var reg 2 f" hi [-1:0] $end
$var reg 2 g" level [1:0] $end
$var reg 4 h" lo [3:0] $end
$var reg 4 i" ret [3:0] $end
$var reg 2 j" tree_id [1:0] $end
$scope begin $ivl_for_loop0 $end
$var integer 32 k" i [31:0] $end
$upscope $end
$scope begin $ivl_for_loop1 $end
$var integer 32 l" i [31:0] $end
$upscope $end
$upscope $end
$scope begin $ivl_for_loop2 $end
$var integer 32 m" i [31:0] $end
$upscope $end
$scope begin $ivl_for_loop3 $end
$var integer 32 n" i [31:0] $end
$upscope $end
$upscope $end
$upscope $end
$scope begin pifo_loop[3] $end
$scope module u_PIFO $end
$var wire 1 " i_arst_n $end
$var wire 1 # i_clk $end
$var wire 2 o" i_level [1:0] $end
$var wire 3 p" i_my_addr [2:0] $end
$var wire 1 q" i_pop $end
$var wire 8 r" i_pop_data [7:0] $end
$var wire 1 s" i_push $end
$var wire 8 t" i_push_data [7:0] $end
$var wire 32 u" i_read_data [31:0] $end
$var wire 2 v" i_tree_id [1:0] $end
$var wire 3 w" o_child_addr [2:0] $end
$var wire 1 x" o_read $end
$var wire 2 y" o_tree_id [1:0] $end
$var wire 1 z" read $end
$var wire 2 {" read_hi [-1:0] $end
$var wire 2 |" write_hi [-1:0] $end
$var wire 32 }" o_write_data [31:0] $end
$var wire 4 ~" o_write_addr [3:0] $end
$var wire 1 !# o_write $end
$var wire 4 "# o_read_addr [3:0] $end
$var wire 8 ## o_push_data [7:0] $end
$var wire 1 $# o_push $end
$var wire 8 %# o_pop_data [7:0] $end
$var wire 1 &# o_pop $end
$var wire 2 '# o_level [1:0] $end
$var reg 3 (# child_addr [2:0] $end
$var reg 2 )# cur_level [1:0] $end
$var reg 2 *# cur_tree_id [1:0] $end
$var reg 2 +# fsm [1:0] $end
$var reg 8 ,# ipushd_latch [7:0] $end
$var reg 1 -# min_data_port $end
$var reg 1 .# min_sub_tree $end
$var reg 3 /# my_addr [2:0] $end
$var reg 1 0# pop $end
$var reg 8 1# pop_data [7:0] $end
$var reg 1 2# push $end
$var reg 8 3# push_data [7:0] $end
$var reg 4 4# read_lo [3:0] $end
$var reg 4 5# read_offset [3:0] $end
$var reg 32 6# wdata [31:0] $end
$var reg 1 !# write $end
$var reg 4 7# write_lo [3:0] $end
$var reg 4 8# write_offset [3:0] $end
$scope function get_offset $end
$var reg 2 9# hi [-1:0] $end
$var reg 2 :# level [1:0] $end
$var reg 4 ;# lo [3:0] $end
$var reg 4 <# ret [3:0] $end
$var reg 2 =# tree_id [1:0] $end
$scope begin $ivl_for_loop0 $end
$var integer 32 ># i [31:0] $end
$upscope $end
$scope begin $ivl_for_loop1 $end
$var integer 32 ?# i [31:0] $end
$upscope $end
$upscope $end
$scope begin $ivl_for_loop2 $end
$var integer 32 @# i [31:0] $end
$upscope $end
$scope begin $ivl_for_loop3 $end
$var integer 32 A# i [31:0] $end
$upscope $end
$upscope $end
$upscope $end
$scope begin sram_inst[0] $end
$scope module u_INFER_SDPRAM $end
$var wire 1 " i_arst_n $end
$var wire 1 # i_clk $end
$var wire 4 B# i_raddr [3:0] $end
$var wire 1 C# i_re $end
$var wire 4 D# i_waddr [3:0] $end
$var wire 32 E# i_wdata [31:0] $end
$var wire 1 F# i_we $end
$var reg 32 G# o_rdata [31:0] $end
$var integer 32 H# i [31:0] $end
$scope begin genblk3 $end
$upscope $end
$upscope $end
$upscope $end
$scope begin sram_inst[1] $end
$scope module u_INFER_SDPRAM $end
$var wire 1 " i_arst_n $end
$var wire 1 # i_clk $end
$var wire 4 I# i_raddr [3:0] $end
$var wire 1 J# i_re $end
$var wire 4 K# i_waddr [3:0] $end
$var wire 32 L# i_wdata [31:0] $end
$var wire 1 M# i_we $end
$var reg 32 N# o_rdata [31:0] $end
$var integer 32 O# i [31:0] $end
$scope begin genblk3 $end
$upscope $end
$upscope $end
$upscope $end
$scope begin sram_inst[2] $end
$scope module u_INFER_SDPRAM $end
$var wire 1 " i_arst_n $end
$var wire 1 # i_clk $end
$var wire 4 P# i_raddr [3:0] $end
$var wire 1 Q# i_re $end
$var wire 4 R# i_waddr [3:0] $end
$var wire 32 S# i_wdata [31:0] $end
$var wire 1 T# i_we $end
$var reg 32 U# o_rdata [31:0] $end
$var integer 32 V# i [31:0] $end
$scope begin genblk3 $end
$upscope $end
$upscope $end
$upscope $end
$scope begin sram_inst[3] $end
$scope module u_INFER_SDPRAM $end
$var wire 1 " i_arst_n $end
$var wire 1 # i_clk $end
$var wire 4 W# i_raddr [3:0] $end
$var wire 1 X# i_re $end
$var wire 4 Y# i_waddr [3:0] $end
$var wire 32 Z# i_wdata [31:0] $end
$var wire 1 [# i_we $end
$var reg 32 \# o_rdata [31:0] $end
$var integer 32 ]# i [31:0] $end
$scope begin genblk3 $end
$upscope $end
$upscope $end
$upscope $end
$upscope $end
$upscope $end
$enddefinitions $end
#0
$dumpvars
b10000 ]#
bx \#
0[#
b0 Z#
b0 Y#
0X#
b0 W#
b10000 V#
bx U#
0T#
b0 S#
b0 R#
0Q#
b0 P#
b10000 O#
bx N#
0M#
b0 L#
b0 K#
0J#
b0 I#
b10000 H#
bx G#
0F#
b0 E#
b0 D#
0C#
b0 B#
b11 A#
b11 @#
b0 ?#
b0 >#
bx =#
bx <#
bx ;#
bx :#
bx 9#
b0 8#
b0 7#
b0 6#
b0 5#
b0 4#
b0 3#
02#
b11111111 1#
00#
b0 /#
x.#
x-#
b0 ,#
b0 +#
b0 *#
b0 )#
b111 (#
b1 '#
0&#
b11111111 %#
0$#
b0 ##
b0 "#
0!#
b0 ~"
b0 }"
b0 |"
b0 {"
0z"
b0 y"
0x"
b111 w"
b0 v"
bx u"
b11111111 t"
0s"
b11111111 r"
0q"
b0 p"
b0 o"
b11 n"
b11 m"
b0 l"
b0 k"
bx j"
bx i"
bx h"
bx g"
bx f"
b0 e"
b0 d"
b0 c"
b0 b"
b0 a"
b0 `"
0_"
b11111111 ^"
0]"
b0 \"
x["
xZ"
b0 Y"
b0 X"
b0 W"
b0 V"
b111 U"
b1 T"
0S"
b11111111 R"
0Q"
b0 P"
b0 O"
0N"
b0 M"
b0 L"
b0 K"
b0 J"
0I"
b0 H"
0G"
b111 F"
b0 E"
bx D"
b11111111 C"
0B"
b11111111 A"
0@"
b0 ?"
b0 >"
b11 ="
b11 <"
b0 ;"
b0 :"
bx 9"
bx 8"
bx 7"
bx 6"
bx 5"
b0 4"
b0 3"
b0 2"
b0 1"
b0 0"
b0 /"
0."
b11111111 -"
0,"
b0 +"
x*"
x)"
b0 ("
b0 '"
b0 &"
b0 %"
b111 $"
b1 #"
0""
b11111111 !"
0~
b0 }
b0 |
0{
b0 z
b0 y
b0 x
b0 w
0v
b0 u
0t
b111 s
b0 r
bx q
b11111111 p
0o
b11111111 n
0m
b0 l
b0 k
b11 j
b11 i
b0 h
b0 g
bx f
bx e
bx d
bx c
bx b
b0 a
b0 `
b0 _
b0 ^
b0 ]
b0 \
0[
b11111111 Z
0Y
b0 X
xW
xV
b0 U
b0 T
b0 S
b0 R
b111 Q
b1 P
0O
b11111111 N
0M
b0 L
b0 K
0J
b0 I
b0 H
b0 G
b0 F
0E
b0 D
0C
b111 B
b0 A
bx @
bx ?
0>
b11111111 =
0<
b0 ;
b0 :
bx 9
bx 8
bx 7
bx 6
bx 5
b0 4
b0 3
b0 2
b0 1
00
b1 /
b0 .
b0 -
b11111111 ,
b0 +
bx *
b1 )
b110010 (
b0 '
bx &
0%
0$
0#
0"
b11111111 !
$end
#400
1#
#800
0#
#1200
1#
#1600
0#
#2000
1#
#2400
0#
#2800
1#
#3200
0#
#3600
1#
#4000
0#
#4400
1#
#4800
0#
#5200
1#
#5600
0#
#6000
1#
#6400
0#
#6800
1#
#7200
0#
#7600
1#
#8000
0#
#8400
1#
#8800
0#
#9200
1#
#9600
0#
#10000
1#
#10400
0#
#10800
1#
#11200
0#
#11600
1#
#12000
0#
#12400
1#
#12800
0#
#13200
1#
#13600
0#
#14000
1#
#14400
0#
#14800
1#
#15200
0#
#15600
1#
#16000
0#
#16400
1#
#16800
0#
#17200
1#
#17600
0#
#18000
1#
#18400
0#
#18800
1#
#19200
0#
#19600
1#
#20000
0#
#20400
1#
#20800
0#
#21200
1#
#21600
0#
#22000
1#
#22400
0#
#22800
1#
#23200
0#
#23600
1#
#24000
0#
#24400
1#
#24800
0#
#25200
1#
#25600
0#
#26000
1#
#26400
0#
#26800
1#
#27200
0#
#27600
1#
#28000
0#
#28400
1#
#28800
0#
#29200
1#
#29600
0#
#30000
1#
#30400
0#
#30800
1#
#31200
0#
#31600
1#
#32000
0#
#32400
1#
#32800
0#
#33200
1#
#33600
0#
#34000
1#
#34400
0#
#34800
1#
#35200
0#
#35600
1#
#36000
0#
#36400
1#
#36800
0#
#37200
1#
#37600
0#
#38000
1#
#38400
0#
#38800
1#
#39200
0#
#39600
1#
#40000
0#
b0 (
1"
#40400
1C#
b1 2
b1 1
1C
1E
1>
b1 3
b10010001 ?
b1 (
1%
b10010001 &
b10010001 *
1#
#40800
0#
#41200
1F#
b1 .
b111111110000000110010001 E#
b111111110000000110010001 H
b111111110000000110010001 _
b0 B
b0 Q
b1 -
1J
b10010001 U
b1 T
0C#
1Q#
b100 2
0C
0E
b100 1
1G"
1I"
0>
1B"
b11 j
b11 <"
b11 ="
b110 P#
b110 O"
b110 b"
b110 a"
b11 m"
b0 B#
b0 K
b0 ^
b0 ]
b11 i
b100 3
b111111 C"
b10 E"
b11111111 ?
b0 A
0V
0W
b10 (
b111111 &
b111111 *
b10 '
b10 +
b111111110000000011111111 @
b111111110000000011111111 G#
1#
#41600
0#
#42000
1T#
0F#
b100 .
b110 R#
b110 M"
b110 e"
b110 d"
b11 n"
b111111110000000100111111 S#
b111111110000000100111111 L"
b111111110000000100111111 c"
b0 F"
b0 U"
1N"
b111 B
b111 Q
b0 E#
b0 H
b0 _
b100 -
0J
b10 H"
b10 W"
b111111 Y"
b1 X"
b0 U
b0 T
1C#
0Q#
b1 2
1C
1E
b1 1
0G"
0I"
1>
0B"
b11 ?
b1 3
b11 i
b11 j
b11 <"
b11 ="
b0 P#
b0 O"
b0 b"
b11 m"
b0 a"
b11111111 C"
b0 E"
0Z"
0["
b11 (
b11 &
b11 *
b0 '
b0 +
b111111110000000011111111 D"
b111111110000000011111111 U#
1#
#42400
0#
#42800
1F#
0T#
b1 .
b1000000110000000110010001 E#
b1000000110000000110010001 H
b1000000110000000110010001 _
b1 B
b1 Q
1J
b0 R#
b0 M"
b0 e"
b11 n"
b0 d"
b111 F"
b111 U"
b0 S#
b0 L"
b0 c"
b1 -
0N"
b11 U
b1 T
b0 H"
b0 W"
b0 Y"
b0 X"
0C#
1Q#
b100 2
0C
0E
b100 1
1G"
1I"
0>
1B"
b11 j
b11 <"
b11 ="
b110 P#
b110 O"
b110 b"
b110 a"
b11 m"
b0 B#
b0 K
b0 ^
b0 ]
b11 i
b100 3
b110001 C"
b10 E"
b11111111 ?
b0 A
1W
b100 (
b110001 &
b110001 *
b10 '
b10 +
b111111110000000110010001 @
b111111110000000110010001 G#
1#
#43200
0#
#43600
1T#
0F#
b100 .
b110 R#
b110 M"
b110 e"
b110 d"
b11 n"
b1001100010000000100111111 S#
b1001100010000000100111111 L"
b1001100010000000100111111 c"
b1 F"
b1 U"
1N"
b111 B
b111 Q
b0 E#
b0 H
b0 _
b100 -
0J
b10 H"
b10 W"
b110001 Y"
b1 X"
b0 U
b0 T
1C#
0Q#
b1 2
1C
1E
b1 1
0G"
0I"
1>
0B"
b10000110 ?
b1 3
b11 i
b11 j
b11 <"
b11 ="
b0 P#
b0 O"
b0 b"
b11 m"
b0 a"
b11111111 C"
b0 E"
1["
b101 (
b10000110 &
b10000110 *
b0 '
b0 +
b111111110000000100111111 D"
b111111110000000100111111 U#
1#
#44000
0#
#44400
1J#
1t
1v
1o
b1 k
b10010001 p
1F#
0T#
1M
b1 .
b1000000110000001010000110 E#
b1000000110000001010000110 H
b1000000110000001010000110 _
b10010001 L
b10010001 \
1[
b0 B
b0 Q
1J
b0 R#
b0 M"
b0 e"
b11 n"
b0 d"
b111 F"
b111 U"
b0 S#
b0 L"
b0 c"
b1 -
0N"
b10000110 U
b1 T
b0 H"
b0 W"
b0 Y"
b0 X"
0C#
1Q#
b110 2
0C
0E
b110 1
1G"
1I"
0>
1B"
b11 j
b11 <"
b11 ="
b110 P#
b110 O"
b110 b"
b110 a"
b11 m"
b0 B#
b0 K
b0 ^
b0 ]
b11 i
b110 3
b11000110 C"
b10 E"
b11111111 ?
b0 A
1V
0W
b110 (
b11000110 &
b11000110 *
b10 '
b10 +
b1000000110000000110010001 @
b1000000110000000110010001 G#
1#
#44800
0#
#45200
1X#
0J#
1x"
1z"
0t
0v
b1100 W#
b1100 "#
b1100 5#
b1100 4#
b11 @#
1s"
b1 o"
b10 v"
0o
b0 k
b11000110 t"
1T#
1M#
0F#
1Q"
b0 I#
b0 |
b0 l
b110 .
b11111111 p
0M
b110 R#
b110 M"
b110 e"
b110 d"
b11 n"
b1001100010000001000111111 S#
b1001100010000001000111111 L"
b1001100010000001000111111 c"
b11000110 P"
b11000110 `"
1_"
b0 F"
b0 U"
1N"
b111111110000000110010001 L#
b111111110000000110010001 y
b111111110000000110010001 2"
b0 s
b0 $"
1{
b111 B
b111 Q
b0 E#
b0 H
b0 _
b110 -
0J
b0 L
b0 \
0[
b10 H"
b10 W"
b11000110 Y"
b1 X"
b10 #"
b1 %"
b10010001 ("
b1 '"
b0 U
b0 T
1C#
0Q#
b1001 2
1C
1E
b1001 1
0G"
0I"
1>
0B"
b110001 ?
b1001 3
b11 i
b11 j
b11 <"
b11 ="
b0 P#
b0 O"
b0 b"
b11 m"
b0 a"
b11111111 C"
b0 E"
0)"
0*"
1Z"
0["
b111 (
b110001 &
b110001 *
b0 '
b0 +
b111111110000000011111111 q
b111111110000000011111111 N#
b1001100010000000100111111 D"
b1001100010000000100111111 U#
1#
#45600
0#
#46000
1J#
0X#
1t
1v
0x"
0z"
1o
b1 k
b1 I#
b1 |
b1 l
0s"
b0 o"
b110001 p
1F#
0M#
0T#
1[#
1M
b0 5#
b0 W#
b0 "#
b0 p"
b11111111 t"
0Q"
b1001 .
b10000000110000001010000110 E#
b10000000110000001010000110 H
b10000000110000001010000110 _
b110001 L
b110001 \
1[
b1 B
b1 Q
1J
b111 s
b111 $"
b0 L#
b0 y
b0 2"
0{
b0 v"
b111 F"
b111 U"
b0 S#
b0 L"
b0 c"
0N"
b0 P"
b0 `"
0_"
b0 R#
b0 M"
b0 e"
b11 n"
b0 d"
b11 @#
b0 4#
b1100 Y#
b1100 ~"
b1100 8#
b1100 7#
b11 A#
b111111110000000111000110 Z#
b111111110000000111000110 }"
b111111110000000111000110 6#
b0 w"
b0 (#
b1001 -
1!#
b110001 U
b1 T
b1 #"
b0 %"
b0 ("
b0 '"
b0 H"
b0 W"
b0 Y"
b0 X"
b10 y"
b10 *#
b10 '#
b1 )#
b11000110 ,#
b1 +#
0C#
1Q#
b110 2
0C
0E
b110 1
1G"
1I"
0>
1B"
b11 j
b11 <"
b11 ="
b110 P#
b110 O"
b110 b"
b110 a"
b11 m"
b0 B#
b0 K
b0 ^
b0 ]
b11 i
b110 3
b1000 C"
b10 E"
b11111111 ?
b0 A
0-#
0.#
1W
b1000 (
b1000 &
b1000 *
b10 '
b10 +
b111111110000000011111111 u"
b111111110000000011111111 \#
b1000000110000001010000110 @
b1000000110000001010000110 G#
1#
#46400
0#
#46800
1X#
0J#
1x"
1z"
0t
0v
b1100 5#
b1100 4#
1s"
b1 o"
b10 v"
b1101 W#
b1101 "#
b1 p"
0o
b0 k
0[#
b110001 t"
1T#
1M#
0F#
1Q"
b0 I#
b0 |
b0 l
b110 .
b11111111 p
0M
b11 @#
b0 Y#
b0 ~"
b0 8#
b11 A#
b0 7#
b111 w"
b111 (#
b0 Z#
b0 }"
b0 6#
0!#
b110 R#
b110 M"
b110 e"
b110 d"
b11 n"
b10000010000000001000111111 S#
b10000010000000001000111111 L"
b10000010000000001000111111 c"
b110001 P"
b110001 `"
1_"
b1 F"
b1 U"
1N"
b111111110000000100110001 L#
b111111110000000100110001 y
b111111110000000100110001 2"
b10 s
b10 $"
1{
b111 B
b111 Q
b0 E#
b0 H
b0 _
b110 -
0J
b0 L
b0 \
0[
b0 y"
b0 *#
b1 '#
b0 )#
b0 ,#
b0 +#
b10 H"
b10 W"
b1000 Y"
b1 X"
b10 #"
b1 %"
b1 K#
b1 z
b1 +"
b110001 ("
b1 '"
b0 U
b0 T
1C#
0Q#
b1001 2
1C
1E
b1001 1
0G"
0I"
1>
0B"
b10000000 ?
b1001 3
b11 i
b11 j
b11 <"
b11 ="
b0 P#
b0 O"
b0 b"
b11 m"
b0 a"
b11111111 C"
b0 E"
1["
b1001 (
b10000000 &
b10000000 *
b0 '
b0 +
b1001100010000001000111111 D"
b1001100010000001000111111 U#
1#
#47200
0#
#47600
1J#
0X#
1t
1v
0x"
0z"
1o
b1 k
0s"
b0 o"
b10000110 p
1F#
0M#
0T#
1[#
1M
b0 5#
b0 W#
b0 "#
b0 p"
b11111111 t"
0Q"
b1001 .
b10000000110000001110000000 E#
b10000000110000001110000000 H
b10000000110000001110000000 _
b10000110 L
b10000110 \
1[
b0 B
b0 Q
1J
b111 s
b111 $"
b0 L#
b0 y
b0 2"
0{
b0 v"
b111 F"
b111 U"
b0 S#
b0 L"
b0 c"
0N"
b0 P"
b0 `"
0_"
b0 R#
b0 M"
b0 e"
b11 n"
b0 d"
b11 @#
b0 4#
b1100 8#
b1100 7#
b11 A#
b111111110000000100110001 Z#
b111111110000000100110001 }"
b111111110000000100110001 6#
b10 w"
b10 (#
b1001 -
1!#
b10000000 U
b1 T
b1 #"
b0 %"
b0 K#
b0 z
b0 +"
b0 ("
b0 '"
b0 H"
b0 W"
b0 Y"
b0 X"
b10 y"
b10 *#
b10 '#
b1 )#
b1101 Y#
b1101 ~"
b1 /#
b110001 ,#
b1 +#
0C#
1Q#
b110 2
0C
0E
b110 1
1G"
1I"
0>
1B"
b11 j
b11 <"
b11 ="
b110 P#
b110 O"
b110 b"
b110 a"
b11 m"
b0 B#
b0 K
b0 ^
b0 ]
b11 i
b110 3
b10000110 C"
b10 E"
b11111111 ?
b0 A
0W
b1010 (
b10000110 &
b10000110 *
b10 '
b10 +
b10000000110000001010000110 @
b10000000110000001010000110 G#
1#
#48000
0#
#48400
1X#
0J#
1x"
1z"
0t
0v
b1100 W#
b1100 "#
b1100 5#
b1100 4#
1s"
b1 o"
b10 v"
0o
b0 k
0[#
b10000110 t"
1T#
1M#
0F#
1Q"
b0 I#
b0 |
b0 l
b110 .
b11111111 p
0M
b11 @#
b0 8#
b11 A#
b0 7#
b111 w"
b111 (#
b0 Z#
b0 }"
b0 6#
0!#
b110 R#
b110 M"
b110 e"
b110 d"
b11 n"
b10000010000000001100111111 S#
b10000010000000001100111111 L"
b10000010000000001100111111 c"
b10000110 P"
b10000110 `"
1_"
b0 F"
b0 U"
1N"
b1100001100000000110010001 L#
b1100001100000000110010001 y
b1100001100000000110010001 2"
b1 s
b1 $"
1{
b111 B
b111 Q
b0 E#
b0 H
b0 _
b110 -
0J
b0 L
b0 \
0[
b0 y"
b0 *#
b1 '#
b0 )#
b0 Y#
b0 ~"
b0 /#
b0 ,#
b0 +#
b10 H"
b10 W"
b10000110 Y"
b1 X"
b10 #"
b1 %"
b10000110 ("
b1 '"
b0 U
b0 T
1C#
0Q#
b1001 2
1C
1E
b1001 1
0G"
0I"
1>
0B"
b10111010 ?
b1001 3
b11 i
b11 j
b11 <"
b11 ="
b0 P#
b0 O"
b0 b"
b11 m"
b0 a"
b11111111 C"
b0 E"
1*"
0["
b1011 (
b10111010 &
b10111010 *
b0 '
b0 +
b111111110000000110010001 q
b111111110000000110010001 N#
b10000010000000001000111111 D"
b10000010000000001000111111 U#
1#
#48800
0#
#49200
1J#
0X#
1t
1v
0x"
0z"
1o
b1 k
b1 I#
b1 |
b1 l
0s"
b0 o"
b10111010 p
1F#
0M#
0T#
1[#
1M
b0 5#
b0 W#
b0 "#
b0 p"
b11111111 t"
0Q"
b1001 .
b11000000110000001110000000 E#
b11000000110000001110000000 H
b11000000110000001110000000 _
b10111010 L
b10111010 \
1[
b1 B
b1 Q
1J
b111 s
b111 $"
b0 L#
b0 y
b0 2"
0{
b0 v"
b111 F"
b111 U"
b0 S#
b0 L"
b0 c"
0N"
b0 P"
b0 `"
0_"
b0 R#
b0 M"
b0 e"
b11 n"
b0 d"
b11 @#
b0 4#
b1100 Y#
b1100 ~"
b1100 8#
b1100 7#
b11 A#
b1100001100000000111000110 Z#
b1100001100000000111000110 }"
b1100001100000000111000110 6#
b1 w"
b1 (#
b1001 -
1!#
b10111010 U
b1 T
b1 #"
b0 %"
b0 ("
b0 '"
b0 H"
b0 W"
b0 Y"
b0 X"
b10 y"
b10 *#
b10 '#
b1 )#
b10000110 ,#
b1 +#
0C#
1Q#
b110 2
0C
0E
b110 1
1G"
1I"
0>
1B"
b11 j
b11 <"
b11 ="
b110 P#
b110 O"
b110 b"
b110 a"
b11 m"
b0 B#
b0 K
b0 ^
b0 ]
b11 i
b110 3
b10011110 C"
b10 E"
b11111111 ?
b0 A
1.#
1W
b1100 (
b10011110 &
b10011110 *
b10 '
b10 +
b111111110000000111000110 u"
b111111110000000111000110 \#
b10000000110000001110000000 @
b10000000110000001110000000 G#
1#
#49600
0#
