BMW_PIFO_SRAM_v1/wave.vcd
$date
	Mon May 01 20:35:53 2023
$end
$version
	Icarus Verilog
$end
$timescale
	10ps
$end
$scope module TC $end
$var wire 8 ! pop_data [7:0] $end
$var reg 1 " arst_n $end
$var reg 1 # clk $end
$var reg 1 $ pop $end
$var reg 1 % push $end
$var reg 8 & push_data [7:0] $end
$var integer 32 ' i [31:0] $end
$var integer 32 ( seed [31:0] $end
$scope module u_PIFO_TOP $end
$var wire 1 " i_arst_n $end
$var wire 1 # i_clk $end
$var wire 1 $ i_pop $end
$var wire 1 % i_push $end
$var wire 8 ) i_push_data [7:0] $end
$var wire 64 * push_read_data [63:0] $end
$var wire 4 + we [3:0] $end
$var wire 13 , waddr [12:0] $end
$var wire 4 - re [3:0] $end
$var wire 13 . raddr [12:0] $end
$var wire 2 / push_write_level [1:0] $end
$var wire 64 0 push_write_data [63:0] $end
$var wire 20 1 push_write_addr [19:0] $end
$var wire 1 2 push_rpu_write $end
$var wire 1 3 push_rpu_read $end
$var wire 1 4 push_ready $end
$var wire 2 5 push_read_level [1:0] $end
$var wire 20 6 push_read_addr [19:0] $end
$var wire 2 7 pop_rpu_write [1:0] $end
$var wire 2 8 pop_rpu_read [1:0] $end
$var wire 1 9 pop_ready $end
$var wire 8 : o_pop_data [7:0] $end
$scope function addr_idx_high $end
$var integer 32 ; i [31:0] $end
$var integer 32 < j [31:0] $end
$var integer 32 = k [31:0] $end
$var integer 32 > pifo_level [31:0] $end
$upscope $end
$scope function addr_idx_low $end
$var integer 32 ? i [31:0] $end
$var integer 32 @ j [31:0] $end
$var integer 32 A k [31:0] $end
$var integer 32 B pifo_level [31:0] $end
$upscope $end
$scope function find_level $end
$var integer 32 C a [31:0] $end
$var integer 32 D i [31:0] $end
$var integer 32 E j [31:0] $end
$var integer 32 F k [31:0] $end
$upscope $end
$scope begin loop[0] $end
$upscope $end
$scope begin loop[1] $end
$upscope $end
$scope begin loop[2] $end
$upscope $end
$scope begin loop[3] $end
$upscope $end
$scope begin sram_inst[1] $end
$scope module u_INFER_SDPRAM $end
$var wire 1 " i_arst_n $end
$var wire 1 # i_clk $end
$var wire 2 G i_raddr [1:0] $end
$var wire 1 H i_re $end
$var wire 2 I i_waddr [1:0] $end
$var wire 64 J i_wdata [63:0] $end
$var wire 1 K i_we $end
$var reg 64 L o_rdata [63:0] $end
$var integer 32 M i [31:0] $end
$scope begin genblk3 $end
$upscope $end
$upscope $end
$upscope $end
$scope begin sram_inst[2] $end
$scope module u_INFER_SDPRAM $end
$var wire 1 " i_arst_n $end
$var wire 1 # i_clk $end
$var wire 4 N i_raddr [3:0] $end
$var wire 1 O i_re $end
$var wire 4 P i_waddr [3:0] $end
$var wire 64 Q i_wdata [63:0] $end
$var wire 1 R i_we $end
$var reg 64 S o_rdata [63:0] $end
$var integer 32 T i [31:0] $end
$scope begin genblk3 $end
$upscope $end
$upscope $end
$upscope $end
$scope begin sram_inst[3] $end
$scope module u_INFER_SDPRAM $end
$var wire 1 " i_arst_n $end
$var wire 1 # i_clk $end
$var wire 6 U i_raddr [5:0] $end
$var wire 1 V i_re $end
$var wire 6 W i_waddr [5:0] $end
$var wire 64 X i_wdata [63:0] $end
$var wire 1 Y i_we $end
$var reg 64 Z o_rdata [63:0] $end
$var integer 32 [ i [31:0] $end
$scope begin genblk3 $end
$upscope $end
$upscope $end
$upscope $end
$scope module root $end
$var wire 1 " i_arst_n $end
$var wire 1 # i_clk $end
$var wire 1 \ i_raddr $end
$var wire 1 ] i_re $end
$var wire 1 ^ i_waddr $end
$var wire 64 _ i_wdata [63:0] $end
$var wire 1 ` i_we $end
$var reg 64 a o_rdata [63:0] $end
$var integer 32 b i [31:0] $end
$scope begin genblk3 $end
$upscope $end
$upscope $end
$scope module u_POP_RPU_PAIR $end
$var wire 1 " i_arst_n $end
$var wire 1 # i_clk $end
$var wire 1 $ i_pop $end
$var wire 8 c o_pop_data [7:0] $end
$var wire 2 d o_read [0:1] $end
$var wire 2 e o_write [0:1] $end
$var wire 1 9 ready $end
$var wire 2 f write [1:0] $end
$var wire 2 g read [1:0] $end
$var wire 2 h pop_up [1:0] $end
$var wire 2 i done_before [1:0] $end
$scope function addr_idx_high $end
$var integer 32 j i [31:0] $end
$var integer 32 k j [31:0] $end
$var integer 32 l k [31:0] $end
$var integer 32 m pifo_level [31:0] $end
$upscope $end
$scope function addr_idx_low $end
$var integer 32 n i [31:0] $end
$var integer 32 o j [31:0] $end
$var integer 32 p k [31:0] $end
$var integer 32 q pifo_level [31:0] $end
$upscope $end
$scope module u_POP_RPU_0 $end
$var wire 1 " i_arst_n $end
$var wire 1 # i_clk $end
$var wire 1 r i_done_before $end
$var wire 20 s i_my_addr [19:0] $end
$var wire 1 t i_pop $end
$var wire 8 u i_pop_data [7:0] $end
$var wire 64 v i_read_data [63:0] $end
$var wire 20 w o_child_addr [19:0] $end
$var wire 2 x o_fsm [1:0] $end
$var wire 1 y o_read $end
$var wire 20 z o_read_addr [19:0] $end
$var wire 20 { o_write_addr [19:0] $end
$var wire 1 | read $end
$var wire 64 } o_write_data [63:0] $end
$var wire 1 ~ o_write $end
$var wire 8 !" o_pop_data [7:0] $end
$var wire 1 "" o_pop $end
$var reg 20 #" child_addr [19:0] $end
$var reg 2 $" fsm [1:0] $end
$var reg 2 %" min_data_port [1:0] $end
$var reg 2 &" min_sub_tree [1:0] $end
$var reg 20 '" my_addr [19:0] $end
$var reg 1 "" pop $end
$var reg 8 (" pop_data [7:0] $end
$var reg 64 )" wdata [63:0] $end
$var reg 1 ~ write $end
$upscope $end
$scope module u_POP_RPU_1 $end
$var wire 1 " i_arst_n $end
$var wire 1 # i_clk $end
$var wire 1 *" i_done_before $end
$var wire 20 +" i_my_addr [19:0] $end
$var wire 1 ," i_pop $end
$var wire 8 -" i_pop_data [7:0] $end
$var wire 64 ." i_read_data [63:0] $end
$var wire 20 /" o_child_addr [19:0] $end
$var wire 2 0" o_fsm [1:0] $end
$var wire 1 1" o_read $end
$var wire 20 2" o_read_addr [19:0] $end
$var wire 20 3" o_write_addr [19:0] $end
$var wire 1 4" read $end
$var wire 64 5" o_write_data [63:0] $end
$var wire 1 6" o_write $end
$var wire 8 7" o_pop_data [7:0] $end
$var wire 1 8" o_pop $end
$var reg 20 9" child_addr [19:0] $end
$var reg 2 :" fsm [1:0] $end
$var reg 2 ;" min_data_port [1:0] $end
$var reg 2 <" min_sub_tree [1:0] $end
$var reg 20 =" my_addr [19:0] $end
$var reg 1 8" pop $end
$var reg 8 >" pop_data [7:0] $end
$var reg 64 ?" wdata [63:0] $end
$var reg 1 6" write $end
$upscope $end
$upscope $end
$scope module u_PUSH_RPU $end
$var wire 1 @" cur_continue $end
$var wire 1 A" done_before $end
$var wire 1 " i_arst_n $end
$var wire 1 # i_clk $end
$var wire 1 % i_push $end
$var wire 8 B" i_push_data [7:0] $end
$var wire 64 C" i_read_data [63:0] $end
$var wire 1 3 o_read $end
$var wire 20 D" o_read_addr [19:0] $end
$var wire 20 E" o_write_addr [19:0] $end
$var wire 2 F" o_write_level [1:0] $end
$var wire 1 G" read $end
$var wire 1 4 ready $end
$var wire 64 H" o_write_data [63:0] $end
$var wire 1 2 o_write $end
$var wire 2 I" o_read_level [1:0] $end
$var reg 20 J" addr [19:0] $end
$var reg 20 K" addr_nxt [19:0] $end
$var reg 2 L" cur_level [1:0] $end
$var reg 1 M" fsm $end
$var reg 2 N" min_data_port [1:0] $end
$var reg 2 O" min_sub_tree [1:0] $end
$var reg 8 P" push_data [7:0] $end
$var reg 8 Q" push_data_nxt [7:0] $end
$var reg 64 R" wdata [63:0] $end
$var reg 1 2 write $end
$upscope $end
$upscope $end
$upscope $end
$enddefinitions $end
#0
$dumpvars
b1111111111111111111111111111111111111111111111111111111111111111 R"
bx Q"
b11111111 P"
bx O"
bx N"
0M"
b0 L"
b0 K"
b0 J"
b0 I"
b1111111111111111111111111111111111111111111111111111111111111111 H"
0G"
b0 F"
b0 E"
b0 D"
bx C"
bx B"
xA"
x@"
b0 ?"
b11111111 >"
b0 ="
bx <"
bx ;"
b0 :"
b11111111111111111111 9"
08"
b11111111 7"
06"
b0 5"
04"
b0 3"
b11111111111111111111 2"
01"
b0 0"
b11111111111111111111 /"
bx ."
b11111111 -"
0,"
b11111111111111111111 +"
x*"
b0 )"
b11111111 ("
b0 '"
bx &"
bx %"
b0 $"
b11111111111111111111 #"
0""
b11111111 !"
0~
b0 }
0|
b0 {
b0 z
0y
b0 x
b11111111111111111111 w
bx v
b11111111 u
0t
b0 s
xr
bx q
bx p
bx o
bx n
bx m
bx l
bx k
bx j
bx i
b0 h
b0 g
b0 f
b0 e
b0 d
b11111111 c
b10 b
bx a
0`
b11111111000000001111111100000000111111110000000011111111 _
0^
0]
0\
b1000000 [
bx Z
0Y
b11111111000000001111111100000000111111110000000011111111 X
b0 W
0V
b0 U
b10000 T
bx S
0R
b11111111000000001111111100000000111111110000000011111111 Q
b0 P
0O
b0 N
b100 M
bx L
0K
b11111111000000001111111100000000111111110000000011111111 J
b0 I
0H
b0 G
bx F
bx E
bx D
bx C
bx B
bx A
bx @
bx ?
bx >
bx =
bx <
bx ;
b11111111 :
19
b0 8
b0 7
b0 6
b0 5
14
03
02
b0 1
b1111111111111111111111111111111111111111111111111111111111111111 0
b0 /
b0 .
b0 -
b0 ,
b0 +
bx *
bx )
b1 (
b110010 '
bx &
0%
0$
0#
0"
b11111111 !
$end
#400
1#
#800
0#
#1200
1#
#1600
0#
#2000
1#
#2400
0#
#2800
1#
#3200
0#
#3600
1#
#4000
0#
#4400
1#
#4800
0#
#5200
1#
#5600
0#
#6000
1#
#6400
0#
#6800
1#
#7200
0#
#7600
1#
#8000
0#
#8400
1#
#8800
0#
#9200
1#
#9600
0#
#10000
1#
#10400
0#
#10800
1#
#11200
0#
#11600
1#
#12000
0#
#12400
1#
#12800
0#
#13200
1#
#13600
0#
#14000
1#
#14400
0#
#14800
1#
#15200
0#
#15600
1#
#16000
0#
#16400
1#
#16800
0#
#17200
1#
#17600
0#
#18000
1#
#18400
0#
#18800
1#
#19200
0#
#19600
1#
#20000
0#
#20400
1#
#20800
0#
#21200
1#
#21600
0#
#22000
1#
#22400
0#
#22800
1#
#23200
0#
#23600
1#
#24000
0#
#24400
1#
#24800
0#
#25200
1#
#25600
0#
#26000
1#
#26400
0#
#26800
1#
#27200
0#
#27600
1#
#28000
0#
#28400
1#
#28800
0#
#29200
1#
#29600
0#
#30000
1#
#30400
0#
#30800
1#
#31200
0#
#31600
1#
#32000
0#
#32400
1#
#32800
0#
#33200
1#
#33600
0#
#34000
1#
#34400
0#
#34800
1#
#35200
0#
#35600
1#
#36000
0#
#36400
1#
#36800
0#
#37200
1#
#37600
0#
#38000
1#
#38400
0#
#38800
1#
#39200
0#
#39600
1#
#40000
0#
b0 '
1"
#40400
1]
b1 -
x4
13
1G"
b10010001 Q"
b1 '
1%
b10010001 &
b10010001 )
b10010001 B"
1#
#40800
0#
#41200
1`
b11111111000000001111111100000000111111110000000110010001 _
b1 +
b11111111000000001111111100000000111111110000000110010001 0
b11111111000000001111111100000000111111110000000110010001 H"
b11111111000000001111111100000000111111110000000110010001 R"
12
b10010001 P"
1M"
1r
bx1 i
0@"
14
1A"
b0 %"
b0 &"
b0 N"
b0 O"
b111111 Q"
b10 '
b111111 &
b111111 )
b111111 B"
b11111111000000001111111100000000111111110000000011111111 a
b11111111000000001111111100000000111111110000000011111111 v
b11111111000000001111111100000000111111110000000011111111 *
b11111111000000001111111100000000111111110000000011111111 C"
1#
#41600
0#
#42000
b111111 P"
0r
bx0 i
b11111111000000001111111100000001001111110000000110010001 _
b1 &"
b1 O"
b11111111000000001111111100000001001111110000000110010001 0
b11111111000000001111111100000001001111110000000110010001 H"
b11111111000000001111111100000001001111110000000110010001 R"
b11 Q"
b11 '
b11 &
b11 )
b11 B"
b11111111000000001111111100000000111111110000000110010001 a
b11111111000000001111111100000000111111110000000110010001 v
b11111111000000001111111100000000111111110000000110010001 *
b11111111000000001111111100000000111111110000000110010001 C"
1#
#42400
0#
#42800
b11 P"
b11111111000000010000001100000001001111110000000110010001 _
b1 %"
b10 &"
b1 N"
b10 O"
b11111111000000010000001100000001001111110000000110010001 0
b11111111000000010000001100000001001111110000000110010001 H"
b11111111000000010000001100000001001111110000000110010001 R"
b110001 Q"
b100 '
b110001 &
b110001 )
b110001 B"
b11111111000000001111111100000001001111110000000110010001 a
b11111111000000001111111100000001001111110000000110010001 v
b11111111000000001111111100000001001111110000000110010001 *
b11111111000000001111111100000001001111110000000110010001 C"
1#
#43200
0#
#43600
b110001 P"
b100110001000000010000001100000001001111110000000110010001 _
b10 %"
b11 &"
b10 N"
b11 O"
b100110001000000010000001100000001001111110000000110010001 0
b100110001000000010000001100000001001111110000000110010001 H"
b100110001000000010000001100000001001111110000000110010001 R"
b10000110 Q"
b101 '
b10000110 &
b10000110 )
b10000110 B"
b11111111000000010000001100000001001111110000000110010001 a
b11111111000000010000001100000001001111110000000110010001 v
b11111111000000010000001100000001001111110000000110010001 *
b11111111000000010000001100000001001111110000000110010001 C"
1#
#44000
0#
#44400
b10000110 P"
1H
0]
b10 -
b1 5
b1 I"
1@"
b100110001000000010000001100000001001111110000001010000110 _
04
0A"
b0 &"
b0 O"
b100110001000000010000001100000001001111110000001010000110 0
b100110001000000010000001100000001001111110000001010000110 H"
b100110001000000010000001100000001001111110000001010000110 R"
b10010001 Q"
b110 '
b11000110 &
b11000110 )
b11000110 B"
b100110001000000010000001100000001001111110000000110010001 a
b100110001000000010000001100000001001111110000000110010001 v
b100110001000000010000001100000001001111110000000110010001 *
b100110001000000010000001100000001001111110000000110010001 C"
1#
#44800
0#
#45200
1]
0O
0H
b1 -
1K
0`
0@"
b11111111000000001111111100000000111111110000000110010001 J
b10 +
14
b11111111000000001111111100000000111111110000000011111111 _
1A"
b0 5
b0 I"
b0 N"
b11111111000000001111111100000000111111110000000110010001 0
b11111111000000001111111100000000111111110000000110010001 H"
b11111111000000001111111100000000111111110000000110010001 R"
b110001 Q"
b11111111000000001111111100000000111111110000000011111111 *
b11111111000000001111111100000000111111110000000011111111 C"
b1 /
b1 F"
b1 L"
b10010001 P"
1*"
b10 i
b0 ;"
b0 <"
b111 '
b110001 &
b110001 )
b110001 B"
b11111111000000001111111100000000111111110000000011111111 L
b11111111000000001111111100000000111111110000000011111111 ."
1#
#45600
0#
#46000
b1 G
b10 .
1H
0]
b10 -
b1 6
b1 D"
b1 K"
b1 5
b1 I"
1@"
04
0K
1`
0A"
b100110001000000010000001100000010001100010000001010000110 _
b1 +
b11111111000000001111111100000000111111110000000011111111 J
b10 N"
b1 O"
b100110001000000010000001100000010001100010000001010000110 0
b100110001000000010000001100000010001100010000001010000110 H"
b100110001000000010000001100000010001100010000001010000110 R"
b100110001000000010000001100000001001111110000001010000110 *
b100110001000000010000001100000001001111110000001010000110 C"
b0 /
b0 F"
b0 L"
b110001 P"
b111111 Q"
b1 &"
b1000 '
b1000 &
b1000 )
b1000 B"
b100110001000000010000001100000001001111110000001010000110 a
b100110001000000010000001100000001001111110000001010000110 v
1#
#46400
0#
#46800
1]
b0 N
0O
0H
b0 G
b1 -
b1 I
b0 .
1K
0`
0@"
0^
b11111111000000001111111100000000111111110000000100111111 J
b10 +
14
b10 ,
b11111111000000001111111100000000111111110000000011111111 _
1A"
b0 5
b0 I"
b0 N"
b0 O"
b11111111000000001111111100000000111111110000000100111111 0
b11111111000000001111111100000000111111110000000100111111 H"
b11111111000000001111111100000000111111110000000100111111 R"
b10000000 Q"
b0 6
b0 D"
b0 K"
b11111111000000001111111100000000111111110000000011111111 *
b11111111000000001111111100000000111111110000000011111111 C"
b1 /
b1 F"
b1 L"
b1 1
b1 E"
b1 J"
b111111 P"
b1001 '
b10000000 &
b10000000 )
b10000000 B"
1#
#47200
0#
#47600
b10 G
b100 .
1H
0]
b10 -
b10 6
b10 D"
b10 K"
b1 5
b1 I"
1@"
04
0K
1`
0A"
b0 I
b100110001000000100000001100000010001100010000001010000110 _
b1 +
b0 ,
b11111111000000001111111100000000111111110000000011111111 J
b10 N"
b10 O"
b100110001000000100000001100000010001100010000001010000110 0
b100110001000000100000001100000010001100010000001010000110 H"
b100110001000000100000001100000010001100010000001010000110 R"
b100110001000000010000001100000010001100010000001010000110 *
b100110001000000010000001100000010001100010000001010000110 C"
b0 /
b0 F"
b0 L"
b0 1
b0 E"
b0 J"
b10000000 P"
b10000000 Q"
b10 &"
b1010 '
b10000110 &
b10000110 )
b10000110 B"
b100110001000000010000001100000010001100010000001010000110 a
b100110001000000010000001100000010001100010000001010000110 v
1#
#48000
0#
#48400
1]
b0 N
0O
0H
b0 G
b1 -
b10 I
b0 .
b100 ,
1K
0`
0@"
b11111111000000001111111100000000111111110000000110000000 J
b10 +
14
b11111111000000001111111100000000111111110000000011111111 _
1A"
b0 5
b0 I"
b0 N"
b0 O"
b11111111000000001111111100000000111111110000000110000000 0
b11111111000000001111111100000000111111110000000110000000 H"
b11111111000000001111111100000000111111110000000110000000 R"
b10111010 Q"
b0 6
b0 D"
b0 K"
b11111111000000001111111100000000111111110000000011111111 *
b11111111000000001111111100000000111111110000000011111111 C"
b1 /
b1 F"
b1 L"
b10 1
b10 E"
b10 J"
b1011 '
b10111010 &
b10111010 )
b10111010 B"
1#
#48800
0#
#49200
b11 G
b110 .
1H
0]
b10 -
b11 6
b11 D"
b11 K"
b1 5
b1 I"
1@"
04
0K
1`
0A"
b0 I
b1000110001000000100000001100000010001100010000001010000110 _
b1 +
b0 ,
b11111111000000001111111100000000111111110000000011111111 J
b10 N"
b11 O"
b1000110001000000100000001100000010001100010000001010000110 0
b1000110001000000100000001100000010001100010000001010000110 H"
b1000110001000000100000001100000010001100010000001010000110 R"
b100110001000000100000001100000010001100010000001010000110 *
b100110001000000100000001100000010001100010000001010000110 C"
b0 /
b0 F"
b0 L"
b0 1
b0 E"
b0 J"
b10111010 P"
b10111010 Q"
b11 &"
b1100 '
b10011110 &
b10011110 )
b10011110 B"
b100110001000000100000001100000010001100010000001010000110 a
b100110001000000100000001100000010001100010000001010000110 v
1#
#49600
0#
#50000
1]
b0 N
0O
0H
b0 G
b1 -
b11 I
b0 .
1K
0`
0@"
0^
b11111111000000001111111100000000111111110000000110111010 J
b10 +
14
b11111111000000001111111100000000111111110000000011111111 _
b110 ,
1A"
b0 5
b0 I"
b0 N"
b0 O"
b11111111000000001111111100000000111111110000000110111010 0
b11111111000000001111111100000000111111110000000110111010 H"
b11111111000000001111111100000000111111110000000110111010 R"
b11110110 Q"
b0 6
b0 D"
b0 K"
b11111111000000001111111100000000111111110000000011111111 *
b11111111000000001111111100000000111111110000000011111111 C"
b1 /
b1 F"
b1 L"
b11 1
b11 E"
b11 J"
b1101 '
b11110110 &
b11110110 )
b11110110 B"
1#
#50400
0#
#50800
1H
0]
b10 -
b1 5
b1 I"
1@"
04
0K
1`
0A"
b0 I
b1000110001000000100000001100000010001100010000001110000110 _
b1 +
b0 ,
b11111111000000001111111100000000111111110000000011111111 J
b10 N"
b1000110001000000100000001100000010001100010000001110000110 0
b1000110001000000100000001100000010001100010000001110000110 H"
b1000110001000000100000001100000010001100010000001110000110 R"
b1000110001000000100000001100000010001100010000001010000110 *
b1000110001000000100000001100000010001100010000001010000110 C"
b0 /
b0 F"
b0 L"
b0 1
b0 E"
b0 J"
b11110110 P"
b11110110 Q"
b0 &"
b1110 '
b11000101 &
b11000101 )
b11000101 B"
b1000110001000000100000001100000010001100010000001010000110 a
b1000110001000000100000001100000010001100010000001010000110 v
1#
#51200
0#
#51600
1]
b0 N
0O
0H
b0 G
b1 -
b0 .
1K
0`
0@"
b11111111000000001111111100000001111101100000000110010001 J
b10 +
b11111111000000001111111100000000111111110000000011111111 _
14
1A"
b0 5
b0 I"
b11111100 Q"
b0 6
b0 D"
b0 K"
b0 N"
b1 O"
b11111111000000001111111100000001111101100000000110010001 0
b11111111000000001111111100000001111101100000000110010001 H"
b11111111000000001111111100000001111101100000000110010001 R"
b11111111000000001111111100000000111111110000000110010001 *
b11111111000000001111111100000000111111110000000110010001 C"
b1 /
b1 F"
b1 L"
0*"
b0 i
b1 <"
b1111 '
b11111100 &
b11111100 )
b11111100 B"
b11111111000000001111111100000000111111110000000110010001 L
b11111111000000001111111100000000111111110000000110010001 ."
1#
#52000
0#
#52400
b1 G
b10 .
1H
0]
b10 -
b1 6
b1 D"
b1 K"
b1 5
b1 I"
1@"
04
0K
1`
0A"
b1000110001000000100000001100000011001100010000001110000110 _
b1 +
b11111111000000001111111100000000111111110000000011111111 J
b10 N"
b1000110001000000100000001100000011001100010000001110000110 0
b1000110001000000100000001100000011001100010000001110000110 H"
b1000110001000000100000001100000011001100010000001110000110 R"
b1000110001000000100000001100000010001100010000001110000110 *
b1000110001000000100000001100000010001100010000001110000110 C"
b0 /
b0 F"
b0 L"
b11111100 P"
b11111100 Q"
b1 &"
b10000 '
b1100010 &
b1100010 )
b1100010 B"
b1000110001000000100000001100000010001100010000001110000110 a
b1000110001000000100000001100000010001100010000001110000110 v
1#
#52800
0#
#53200
1]
b0 N
b0 G
0O
b0 .
0H
b1 -
b1 I
1K
0`
0@"
0^
b11111111000000001111111100000001111111000000000100111111 J
b10 +
14
b11111111000000001111111100000000111111110000000011111111 _
b10 ,
1A"
b0 5
b0 I"
b0 N"
b11111111000000001111111100000001111111000000000100111111 0
b11111111000000001111111100000001111111000000000100111111 H"
b11111111000000001111111100000001111111000000000100111111 R"
b1100010 Q"
b0 6
b0 D"
b0 K"
b11111111000000001111111100000000111111110000000100111111 *
b11111111000000001111111100000000111111110000000100111111 C"
b1 /
b1 F"
b1 L"
b1 1
b1 E"
b1 J"
b10001 '
b11111111000000001111111100000000111111110000000100111111 L
b11111111000000001111111100000000111111110000000100111111 ."
1#
#53600
0#
#54000
b10 G
b100 .
1H
0]
b10 -
b10 6
b10 D"
b10 K"
b1 5
b1 I"
1@"
04
0K
1`
0A"
b0 I
b1000110001000000110000001100000011001100010000001110000110 _
b1 +
b0 ,
b11111111000000001111111100000000111111110000000011111111 J
b10 N"
b10 O"
b1000110001000000110000001100000011001100010000001110000110 0
b1000110001000000110000001100000011001100010000001110000110 H"
b1000110001000000110000001100000011001100010000001110000110 R"
b1000110001000000100000001100000011001100010000001110000110 *
b1000110001000000100000001100000011001100010000001110000110 C"
b0 /
b0 F"
b0 L"
b0 1
b0 E"
b0 J"
b1100010 P"
b1100010 Q"
b10 &"
b10010 '
b1010100 &
b1010100 )
b1010100 B"
b1000110001000000100000001100000011001100010000001110000110 a
b1000110001000000100000001100000011001100010000001110000110 v
1#
#54400
0#
#54800
1]
b0 N
0O
0H
b0 G
b1 -
b10 I
b0 .
b100 ,
1K
0`
0@"
b11111111000000001111111100000001011000100000000110000000 J
b10 +
14
b11111111000000001111111100000000111111110000000011111111 _
1A"
b0 5
b0 I"
b0 N"
b1 O"
b11111111000000001111111100000001011000100000000110000000 0
b11111111000000001111111100000001011000100000000110000000 H"
b11111111000000001111111100000001011000100000000110000000 R"
b11110010 Q"
b0 6
b0 D"
b0 K"
b11111111000000001111111100000000111111110000000110000000 *
b11111111000000001111111100000000111111110000000110000000 C"
b1 /
b1 F"
b1 L"
b10 1
b10 E"
b10 J"
b10011 '
b11110010 &
b11110010 )
b11110010 B"
b11111111000000001111111100000000111111110000000110000000 L
b11111111000000001111111100000000111111110000000110000000 ."
1#
#55200
0#
#55600
b11 G
b110 .
1H
0]
b10 -
b11 6
b11 D"
b11 K"
b1 5
b1 I"
1@"
04
0K
1`
0A"
b0 I
b1100110001000000110000001100000011001100010000001110000110 _
b1 +
b0 ,
b11111111000000001111111100000000111111110000000011111111 J
b10 N"
b11 O"
b1100110001000000110000001100000011001100010000001110000110 0
b1100110001000000110000001100000011001100010000001110000110 H"
b1100110001000000110000001100000011001100010000001110000110 R"
b1000110001000000110000001100000011001100010000001110000110 *
b1000110001000000110000001100000011001100010000001110000110 C"
b0 /
b0 F"
b0 L"
b0 1
b0 E"
b0 J"
b11110010 P"
b11110010 Q"
b11 &"
b10100 '
b111011 &
b111011 )
b111011 B"
b1000110001000000110000001100000011001100010000001110000110 a
b1000110001000000110000001100000011001100010000001110000110 v
1#
#56000
0#
#56400
1]
b0 N
0O
0H
b0 G
b1 -
b11 I
b0 .
1K
0`
0@"
0^
b11111111000000001111111100000001111100100000000110111010 J
b10 +
14
b11111111000000001111111100000000111111110000000011111111 _
b110 ,
1A"
b0 5
b0 I"
b0 N"
b1 O"
b11111111000000001111111100000001111100100000000110111010 0
b11111111000000001111111100000001111100100000000110111010 H"
b11111111000000001111111100000001111100100000000110111010 R"
b1000 Q"
b0 6
b0 D"
b0 K"
b11111111000000001111111100000000111111110000000110111010 *
b11111111000000001111111100000000111111110000000110111010 C"
b1 /
b1 F"
b1 L"
b11 1
b11 E"
b11 J"
b10101 '
b1000 &
b1000 )
b1000 B"
b11111111000000001111111100000000111111110000000110111010 L
b11111111000000001111111100000000111111110000000110111010 ."
1#
#56800
0#
#57200
1H
0]
b10 -
b1 5
b1 I"
1@"
04
0K
1`
0A"
b0 I
b1100110001000000110000001100000011001100010000010000001000 _
b1 +
b0 ,
b11111111000000001111111100000000111111110000000011111111 J
b10 N"
b0 O"
b1100110001000000110000001100000011001100010000010000001000 0
b1100110001000000110000001100000011001100010000010000001000 H"
b1100110001000000110000001100000011001100010000010000001000 R"
b1100110001000000110000001100000011001100010000001110000110 *
b1100110001000000110000001100000011001100010000001110000110 C"
b0 /
b0 F"
b0 L"
b0 1
b0 E"
b0 J"
b1000 P"
b10000110 Q"
b0 &"
b10110 '
b11000111 &
b11000111 )
b11000111 B"
b1100110001000000110000001100000011001100010000001110000110 a
b1100110001000000110000001100000011001100010000001110000110 v
1#
#57600
0#
#58000
1]
b0 N
0O
0H
b0 G
b1 -
b0 .
1K
0`
0@"
b11111111000000011000011000000001111101100000000110010001 J
b10 +
14
b11111111000000001111111100000000111111110000000011111111 _
1A"
b0 5
b0 I"
b0 6
b0 D"
b0 K"
b0 N"
b10 O"
b11111111000000011000011000000001111101100000000110010001 0
b11111111000000011000011000000001111101100000000110010001 H"
b11111111000000011000011000000001111101100000000110010001 R"
b11111001 Q"
b11111111000000001111111100000001111101100000000110010001 *
b11111111000000001111111100000001111101100000000110010001 C"
b1 /
b1 F"
b1 L"
b10000110 P"
b10 <"
b10111 '
b11111001 &
b11111001 )
b11111001 B"
b11111111000000001111111100000001111101100000000110010001 L
b11111111000000001111111100000001111101100000000110010001 ."
1#
#58400
0#
#58800
b1 G
b10 .
1H
0]
b10 -
b1 6
b1 D"
b1 K"
b1 5
b1 I"
1@"
0K
1`
04
b1100110001000000110000001100000100001100010000010000001000 _
b1 +
0A"
b11111111000000001111111100000000111111110000000011111111 J
b10 N"
b1 O"
b1100110001000000110000001100000100001100010000010000001000 0
b1100110001000000110000001100000100001100010000010000001000 H"
b1100110001000000110000001100000100001100010000010000001000 R"
b1100110001000000110000001100000011001100010000010000001000 *
b1100110001000000110000001100000011001100010000010000001000 C"
b0 /
b0 F"
b0 L"
b11111001 P"
b11111001 Q"
b1 &"
b11000 '
b1100110 &
b1100110 )
b1100110 B"
b1100110001000000110000001100000011001100010000010000001000 a
b1100110001000000110000001100000011001100010000010000001000 v
1#
#59200
0#
#59600
1]
b0 N
0O
0H
b0 G
b1 -
b1 I
b0 .
1K
0`
0@"
0^
b11111111000000011111100100000001111111000000000100111111 J
b10 +
14
b11111111000000001111111100000000111111110000000011111111 _
b10 ,
1A"
b0 5
b0 I"
b0 N"
b10 O"
b11111111000000011111100100000001111111000000000100111111 0
b11111111000000011111100100000001111111000000000100111111 H"
b11111111000000011111100100000001111111000000000100111111 R"
b0 Q"
b0 6
b0 D"
b0 K"
b11111111000000001111111100000001111111000000000100111111 *
b11111111000000001111111100000001111111000000000100111111 C"
b1 /
b1 F"
b1 L"
b1 1
b1 E"
b1 J"
0%
b0 &
b0 )
b0 B"
b11111111000000001111111100000001111111000000000100111111 L
b11111111000000001111111100000001111111000000000100111111 ."
1#
#60000
0#
#60400
1@"
0K
b0 I
b0 +
0A"
b0 ,
b11111111000000001111111100000000111111110000000011111111 J
03
0G"
b10 N"
b1111111111111111111111111111111111111111111111111111111111111111 0
b1111111111111111111111111111111111111111111111111111111111111111 H"
b1111111111111111111111111111111111111111111111111111111111111111 R"
02
b1100110001000000110000001100000100001100010000010000001000 *
b1100110001000000110000001100000100001100010000010000001000 C"
b0 /
b0 F"
b0 L"
b0 1
b0 E"
b0 J"
b11111111 P"
0M"
09
b1 8
b1 d
b1 g
1y
1|
1t
b10 &"
b1 h
b1100110001000000110000001100000100001100010000010000001000 a
b1100110001000000110000001100000100001100010000010000001000 v
1$
b0 '
1#
#60800
0#
#61200
b10 G
b100 .
1H
1`
b1100110001000000101111111100000100001100010000010000001000 _
b1 +
b11 -"
11"
14"
1,"
b1100110001000000101111111100000100001100010000010000001000 }
b1100110001000000101111111100000100001100010000010000001000 )"
b10 2"
b10 +"
b10 w
b10 #"
b1 7
b1 e
b1 f
1~
b11 !
b11 :
b11 c
b11 !"
b11 ("
1""
b11111111111111111111 z
b11111111111111111111 s
b11 x
b11 $"
0]
b10 -
09
b10 8
b10 d
b10 g
0y
0|
0t
b10 h
0$
1#
#61600
0#
